%YAML 1.1
%TAG !u! tag:unity3d.com,2011:
--- !u!1 &3641468795044214683
GameObject:
  m_ObjectHideFlags: 0
  m_CorrespondingSourceObject: {fileID: 0}
  m_PrefabInstance: {fileID: 0}
  m_PrefabAsset: {fileID: 0}
  serializedVersion: 6
  m_Component:
  - component: {fileID: 6478686034039751870}
  m_Layer: 0
  m_Name: Pipe_Corner
  m_TagString: Untagged
  m_Icon: {fileID: 0}
  m_NavMeshLayer: 0
  m_StaticEditorFlags: 4294967295
  m_IsActive: 1
--- !u!4 &6478686034039751870
Transform:
  m_ObjectHideFlags: 0
  m_CorrespondingSourceObject: {fileID: 0}
  m_PrefabInstance: {fileID: 0}
  m_PrefabAsset: {fileID: 0}
  m_GameObject: {fileID: 3641468795044214683}
  m_LocalRotation: {x: 0, y: 0, z: 0, w: 1}
  m_LocalPosition: {x: 0, y: 0, z: 0}
  m_LocalScale: {x: 1, y: 1, z: 1}
  m_Children:
  - {fileID: 4375186815388078647}
  m_Father: {fileID: 0}
  m_RootOrder: 0
  m_LocalEulerAnglesHint: {x: 0, y: 0, z: 0}
--- !u!65 &3174619280590049823
BoxCollider:
  m_ObjectHideFlags: 0
  m_CorrespondingSourceObject: {fileID: 0}
  m_PrefabInstance: {fileID: 0}
  m_PrefabAsset: {fileID: 0}
  m_GameObject: {fileID: 5468734402639375253}
  m_Material: {fileID: 0}
  m_IsTrigger: 0
  m_Enabled: 1
  serializedVersion: 2
  m_Size: {x: 0.9929325, y: 0.9929325, z: 0.396942}
  m_Center: {x: 0.26728973, y: 0.49646625, z: 0}
--- !u!1001 &4268691472792991196
PrefabInstance:
  m_ObjectHideFlags: 0
  serializedVersion: 2
  m_Modification:
    m_TransformParent: {fileID: 6478686034039751870}
    m_Modifications:
    - target: {fileID: -8679921383154817045, guid: f3cb9bd922ffc7741a9c47a2150d55aa,
        type: 3}
      propertyPath: m_LocalPosition.x
      value: 0
      objectReference: {fileID: 0}
    - target: {fileID: -8679921383154817045, guid: f3cb9bd922ffc7741a9c47a2150d55aa,
        type: 3}
      propertyPath: m_LocalPosition.y
      value: 0
      objectReference: {fileID: 0}
    - target: {fileID: -8679921383154817045, guid: f3cb9bd922ffc7741a9c47a2150d55aa,
        type: 3}
      propertyPath: m_LocalPosition.z
      value: 0
      objectReference: {fileID: 0}
    - target: {fileID: -8679921383154817045, guid: f3cb9bd922ffc7741a9c47a2150d55aa,
        type: 3}
      propertyPath: m_LocalRotation.x
      value: -0
      objectReference: {fileID: 0}
    - target: {fileID: -8679921383154817045, guid: f3cb9bd922ffc7741a9c47a2150d55aa,
        type: 3}
      propertyPath: m_LocalRotation.y
      value: -0
      objectReference: {fileID: 0}
    - target: {fileID: -8679921383154817045, guid: f3cb9bd922ffc7741a9c47a2150d55aa,
        type: 3}
      propertyPath: m_LocalRotation.z
      value: -0
      objectReference: {fileID: 0}
    - target: {fileID: -8679921383154817045, guid: f3cb9bd922ffc7741a9c47a2150d55aa,
        type: 3}
      propertyPath: m_LocalRotation.w
      value: 1
      objectReference: {fileID: 0}
    - target: {fileID: -8679921383154817045, guid: f3cb9bd922ffc7741a9c47a2150d55aa,
        type: 3}
      propertyPath: m_RootOrder
      value: 0
      objectReference: {fileID: 0}
    - target: {fileID: -8679921383154817045, guid: f3cb9bd922ffc7741a9c47a2150d55aa,
        type: 3}
      propertyPath: m_LocalEulerAnglesHint.x
      value: 0
      objectReference: {fileID: 0}
    - target: {fileID: -8679921383154817045, guid: f3cb9bd922ffc7741a9c47a2150d55aa,
        type: 3}
      propertyPath: m_LocalEulerAnglesHint.y
      value: 0
      objectReference: {fileID: 0}
    - target: {fileID: -8679921383154817045, guid: f3cb9bd922ffc7741a9c47a2150d55aa,
        type: 3}
      propertyPath: m_LocalEulerAnglesHint.z
      value: 0
      objectReference: {fileID: 0}
    - target: {fileID: 919132149155446097, guid: f3cb9bd922ffc7741a9c47a2150d55aa,
        type: 3}
      propertyPath: m_Name
      value: p_pipe_corner
      objectReference: {fileID: 0}
    - target: {fileID: 919132149155446097, guid: f3cb9bd922ffc7741a9c47a2150d55aa,
        type: 3}
      propertyPath: m_StaticEditorFlags
      value: 4294967295
      objectReference: {fileID: 0}
    - target: {fileID: 8131716084045160009, guid: f3cb9bd922ffc7741a9c47a2150d55aa,
        type: 3}
      propertyPath: m_StaticEditorFlags
      value: 4294967295
      objectReference: {fileID: 0}
    m_RemovedComponents: []
  m_SourcePrefab: {fileID: 100100000, guid: f3cb9bd922ffc7741a9c47a2150d55aa, type: 3}
--- !u!4 &4375186815388078647 stripped
Transform:
  m_CorrespondingSourceObject: {fileID: -8679921383154817045, guid: f3cb9bd922ffc7741a9c47a2150d55aa,
    type: 3}
  m_PrefabInstance: {fileID: 4268691472792991196}
  m_PrefabAsset: {fileID: 0}
--- !u!1 &5468734402639375253 stripped
GameObject:
  m_CorrespondingSourceObject: {fileID: 8131716084045160009, guid: f3cb9bd922ffc7741a9c47a2150d55aa,
    type: 3}
  m_PrefabInstance: {fileID: 4268691472792991196}
  m_PrefabAsset: {fileID: 0}
