%YAML 1.1
%TAG !u! tag:unity3d.com,2011:
--- !u!64 &1903346662652870649
MeshCollider:
  m_ObjectHideFlags: 0
  m_CorrespondingSourceObject: {fileID: 0}
  m_PrefabInstance: {fileID: 0}
  m_PrefabAsset: {fileID: 0}
  m_GameObject: {fileID: 2993523486751271843}
  m_Material: {fileID: 0}
  m_IsTrigger: 0
  m_Enabled: 1
  serializedVersion: 4
  m_Convex: 0
  m_CookingOptions: 30
  m_Mesh: {fileID: -7306394974060822561, guid: b0d5bc8111d88894e892383a96877d47, type: 3}
--- !u!1 &4046461679367145921
GameObject:
  m_ObjectHideFlags: 0
  m_CorrespondingSourceObject: {fileID: 0}
  m_PrefabInstance: {fileID: 0}
  m_PrefabAsset: {fileID: 0}
  serializedVersion: 6
  m_Component:
  - component: {fileID: 3999379553311074080}
  m_Layer: 0
  m_Name: Rail_Corner
  m_TagString: Untagged
  m_Icon: {fileID: 0}
  m_NavMeshLayer: 0
  m_StaticEditorFlags: 4294967295
  m_IsActive: 1
--- !u!4 &3999379553311074080
Transform:
  m_ObjectHideFlags: 0
  m_CorrespondingSourceObject: {fileID: 0}
  m_PrefabInstance: {fileID: 0}
  m_PrefabAsset: {fileID: 0}
  m_GameObject: {fileID: 4046461679367145921}
  m_LocalRotation: {x: 0, y: 0, z: 0, w: 1}
  m_LocalPosition: {x: 0, y: 0, z: 0}
  m_LocalScale: {x: 1, y: 1, z: 1}
  m_Children:
  - {fileID: 8864500162007589646}
  m_Father: {fileID: 0}
  m_RootOrder: 0
  m_LocalEulerAnglesHint: {x: 0, y: 0, z: 0}
--- !u!1001 &8975602121435481317
PrefabInstance:
  m_ObjectHideFlags: 0
  serializedVersion: 2
  m_Modification:
    m_TransformParent: {fileID: 3999379553311074080}
    m_Modifications:
    - target: {fileID: -8679921383154817045, guid: b0d5bc8111d88894e892383a96877d47,
        type: 3}
      propertyPath: m_LocalPosition.x
      value: 0
      objectReference: {fileID: 0}
    - target: {fileID: -8679921383154817045, guid: b0d5bc8111d88894e892383a96877d47,
        type: 3}
      propertyPath: m_LocalPosition.y
      value: 0
      objectReference: {fileID: 0}
    - target: {fileID: -8679921383154817045, guid: b0d5bc8111d88894e892383a96877d47,
        type: 3}
      propertyPath: m_LocalPosition.z
      value: 0
      objectReference: {fileID: 0}
    - target: {fileID: -8679921383154817045, guid: b0d5bc8111d88894e892383a96877d47,
        type: 3}
      propertyPath: m_LocalRotation.x
      value: -0
      objectReference: {fileID: 0}
    - target: {fileID: -8679921383154817045, guid: b0d5bc8111d88894e892383a96877d47,
        type: 3}
      propertyPath: m_LocalRotation.y
      value: -0
      objectReference: {fileID: 0}
    - target: {fileID: -8679921383154817045, guid: b0d5bc8111d88894e892383a96877d47,
        type: 3}
      propertyPath: m_LocalRotation.z
      value: -0
      objectReference: {fileID: 0}
    - target: {fileID: -8679921383154817045, guid: b0d5bc8111d88894e892383a96877d47,
        type: 3}
      propertyPath: m_LocalRotation.w
      value: 1
      objectReference: {fileID: 0}
    - target: {fileID: -8679921383154817045, guid: b0d5bc8111d88894e892383a96877d47,
        type: 3}
      propertyPath: m_RootOrder
      value: 0
      objectReference: {fileID: 0}
    - target: {fileID: -8679921383154817045, guid: b0d5bc8111d88894e892383a96877d47,
        type: 3}
      propertyPath: m_LocalEulerAnglesHint.x
      value: 0
      objectReference: {fileID: 0}
    - target: {fileID: -8679921383154817045, guid: b0d5bc8111d88894e892383a96877d47,
        type: 3}
      propertyPath: m_LocalEulerAnglesHint.y
      value: 180
      objectReference: {fileID: 0}
    - target: {fileID: -8679921383154817045, guid: b0d5bc8111d88894e892383a96877d47,
        type: 3}
      propertyPath: m_LocalEulerAnglesHint.z
      value: 0
      objectReference: {fileID: 0}
    - target: {fileID: 919132149155446097, guid: b0d5bc8111d88894e892383a96877d47,
        type: 3}
      propertyPath: m_Name
      value: p_rail_corner
      objectReference: {fileID: 0}
    - target: {fileID: 919132149155446097, guid: b0d5bc8111d88894e892383a96877d47,
        type: 3}
      propertyPath: m_StaticEditorFlags
      value: 4294967295
      objectReference: {fileID: 0}
    - target: {fileID: 6126196572699930438, guid: b0d5bc8111d88894e892383a96877d47,
        type: 3}
      propertyPath: m_StaticEditorFlags
      value: 4294967295
      objectReference: {fileID: 0}
    m_RemovedComponents: []
  m_SourcePrefab: {fileID: 100100000, guid: b0d5bc8111d88894e892383a96877d47, type: 3}
--- !u!4 &8864500162007589646 stripped
Transform:
  m_CorrespondingSourceObject: {fileID: -8679921383154817045, guid: b0d5bc8111d88894e892383a96877d47,
    type: 3}
  m_PrefabInstance: {fileID: 8975602121435481317}
  m_PrefabAsset: {fileID: 0}
--- !u!1 &2993523486751271843 stripped
GameObject:
  m_CorrespondingSourceObject: {fileID: 6126196572699930438, guid: b0d5bc8111d88894e892383a96877d47,
    type: 3}
  m_PrefabInstance: {fileID: 8975602121435481317}
  m_PrefabAsset: {fileID: 0}
