# 3ds Max Wavefront OBJ Exporter v0.97b - (c)2007 guruware
# File Created: 07.01.2022 20:38:22

#
# object p_cam_head
#

v  -3.1975 -6.6728 12.9975
v  -3.1975 -4.9728 15.6439
v  -3.1975 0.0494 8.4716
v  -3.1975 -1.9927 6.3136
v  -3.1975 2.6873 -0.3702
v  -3.1975 5.0715 1.2992
v  0.0000 5.0715 1.2992
v  0.0000 2.6873 -0.3702
v  -3.1975 2.0915 10.6295
v  0.0000 2.0915 10.6295
v  0.0000 7.4557 2.9686
v  -3.1975 7.4557 2.9686
v  0.0000 -1.9927 6.3136
v  0.0000 -6.6728 12.9975
v  0.0000 -3.2727 18.2904
v  -3.1975 -3.2727 18.2904
v  0.0000 -4.9728 15.6439
v  -2.2778 -4.2886 14.6669
v  -2.2778 -5.9688 17.0664
v  -1.1389 -4.4819 18.3821
v  -1.1389 -2.6727 15.7983
v  0.0000 -4.4819 18.3821
v  0.0000 -2.6727 15.7983
v  -1.1389 -5.9045 13.5354
v  -1.1389 -7.4557 15.7508
v  0.0000 -7.4557 15.7508
v  0.0000 -5.9688 17.0664
v  -2.0268 -3.1330 1.2218
v  -2.0268 -3.1330 8.6920
v  -2.0268 2.1103 1.2218
v  0.0000 -5.9045 13.5354
v  0.0000 -3.1330 1.2218
v  0.0000 -3.1330 8.6920
v  3.1975 -6.6728 12.9975
v  3.1975 -1.9927 6.3136
v  3.1975 0.0494 8.4716
v  3.1975 -4.9728 15.6439
v  3.1975 2.6873 -0.3702
v  3.1975 5.0715 1.2992
v  3.1975 2.0915 10.6295
v  3.1975 7.4557 2.9686
v  3.1975 -3.2727 18.2904
v  2.2778 -4.2886 14.6669
v  1.1389 -2.6727 15.7983
v  1.1389 -4.4819 18.3821
v  2.2778 -5.9688 17.0664
v  1.1389 -5.9045 13.5354
v  1.1389 -7.4557 15.7508
v  2.0268 -3.1330 1.2218
v  2.0268 2.1103 1.2218
v  2.0268 -3.1330 8.6920
v  0.0000 2.1103 1.2218
# 52 vertices

vn -0.6006 -0.7994 -0.0159
vn -0.7071 -0.5949 0.3822
vn -1.0000 0.0000 -0.0000
vn -0.7071 -0.5793 -0.4056
vn -0.5774 -0.1417 -0.8041
vn -0.7071 0.4056 -0.5792
vn 0.0000 0.5736 -0.8192
vn 0.0000 -0.1735 -0.9848
vn -0.7071 0.5792 0.4056
vn 0.0000 0.8192 0.5736
vn 0.0000 0.9848 -0.1736
vn -0.5774 0.8041 -0.1418
vn -0.0000 -0.8192 -0.5736
vn -0.0000 -0.9998 -0.0199
vn 0.0000 -0.0199 0.9998
vn -0.5596 -0.0165 0.8286
vn 0.0000 -0.8414 0.5405
vn -1.0000 0.0001 0.0000
vn -0.7929 -0.3821 0.4748
vn -0.3987 0.1574 0.9035
vn -0.4999 0.7095 0.4968
vn -0.0000 0.1175 0.9931
vn -0.0000 0.8192 0.5736
vn -0.5000 -0.7094 -0.4967
vn -0.3950 -0.9172 0.0510
vn 0.0000 -0.9931 0.1175
vn 0.0000 -0.6627 0.7489
vn -0.5774 -0.5774 -0.5774
vn -0.3630 -0.9318 0.0000
vn -0.5210 0.0000 -0.8536
vn 0.0000 -0.8192 -0.5736
vn -0.0000 -0.7071 -0.7071
vn 0.0000 -1.0000 0.0000
vn 0.6006 -0.7994 -0.0159
vn 0.7071 -0.5792 -0.4056
vn 1.0000 0.0000 -0.0000
vn 0.7071 -0.5949 0.3822
vn 0.5774 -0.1417 -0.8041
vn 0.7071 0.4056 -0.5792
vn 0.7071 0.5792 0.4056
vn 0.5774 0.8041 -0.1418
vn 0.5596 -0.0165 0.8286
vn 1.0000 0.0001 0.0000
vn 0.4999 0.7094 0.4968
vn 0.3987 0.1575 0.9035
vn 0.7929 -0.3821 0.4748
vn 0.5000 -0.7094 -0.4967
vn 0.3950 -0.9172 0.0510
vn 0.5773 -0.5774 -0.5774
vn 0.5210 0.0000 -0.8536
vn 0.3630 -0.9318 0.0000
vn 0.0000 0.0000 -1.0000
# 52 vertex normals

vt 0.7424 0.1286 0.0000
vt 0.7213 0.1286 0.0000
vt 0.7213 0.0866 0.0000
vt 0.7424 0.0866 0.0000
vt 0.7424 0.0279 0.0000
vt 0.7213 0.0279 0.0000
vt 0.7213 0.0064 0.0000
vt 0.7424 0.0064 0.0000
vt 0.7011 0.0866 0.0000
vt 0.6804 0.0866 0.0000
vt 0.6804 0.0279 0.0000
vt 0.7011 0.0279 0.0000
vt 0.7638 0.0866 0.0000
vt 0.7638 0.1286 0.0000
vt 0.6804 0.1286 0.0000
vt 0.7011 0.1286 0.0000
vt 0.7424 0.1497 0.0000
vt 0.7213 0.1497 0.0000
vt 0.7638 0.0279 0.0000
vt 0.7011 0.0064 0.0000
vt 0.7011 0.1497 0.0000
vt 0.9679 0.1814 0.0000
vt 0.9679 0.1973 0.0000
vt 0.9526 0.1973 0.0000
vt 0.9526 0.1814 0.0000
vt 0.9421 0.1973 0.0000
vt 0.9421 0.1814 0.0000
vt 0.9790 0.1814 0.0000
vt 0.9790 0.1973 0.0000
vt 0.9790 0.2060 0.0000
vt 0.9679 0.2060 0.0000
vt 0.9526 0.2060 0.0000
vt 0.9050 0.0252 0.0000
vt 0.9551 0.0257 0.0000
vt 0.9047 0.0603 0.0000
vt 0.9867 0.1814 0.0000
vt 0.9867 0.1973 0.0000
vt 0.9052 0.0116 0.0000
vt 0.9552 0.0121 0.0000
# 39 texture coords

o p_cam_head
g p_cam_head
f 1/1/1 2/2/2 3/3/3 4/4/4 
f 5/5/5 6/6/6 7/7/7 8/8/8 
f 9/9/9 10/10/10 11/11/11 12/12/12 
f 4/4/4 3/3/3 6/6/6 5/5/5 
f 13/13/13 14/14/14 1/1/1 4/4/4 
f 15/15/15 10/10/10 9/9/9 16/16/16 
f 14/17/14 17/18/17 2/2/2 1/1/1 
f 8/19/8 13/13/13 4/4/4 5/5/5 
f 3/3/3 2/2/2 16/16/16 9/9/9 
f 7/7/7 6/6/6 12/12/12 11/20/11 
f 6/6/6 3/3/3 9/9/9 12/12/12 
f 2/2/2 17/18/17 15/21/15 16/16/16 
f 18/22/18 19/23/19 20/24/20 21/25/21 
f 21/25/21 20/24/20 22/26/22 23/27/23 
f 24/28/24 25/29/25 19/23/19 18/22/18 
f 25/29/25 26/30/26 27/31/27 19/23/19 
f 19/23/19 27/31/27 22/32/22 20/24/20 
f 28/33/28 29/34/29 30/35/30 
f 31/36/31 26/37/26 25/29/25 24/28/24 
f 32/38/32 33/39/33 29/34/29 28/33/28 
f 34/1/34 35/4/35 36/3/36 37/2/37 
f 38/5/38 8/8/8 7/7/7 39/6/39 
f 40/9/40 41/12/41 11/11/11 10/10/10 
f 35/4/35 38/5/38 39/6/39 36/3/36 
f 13/13/13 35/4/35 34/1/34 14/14/14 
f 15/15/15 42/16/42 40/9/40 10/10/10 
f 14/17/14 34/1/34 37/2/37 17/18/17 
f 8/19/8 38/5/38 35/4/35 13/13/13 
f 36/3/36 40/9/40 42/16/42 37/2/37 
f 7/7/7 11/20/11 41/12/41 39/6/39 
f 39/6/39 41/12/41 40/9/40 36/3/36 
f 37/2/37 42/16/42 15/21/15 17/18/17 
f 43/22/43 44/25/44 45/24/45 46/23/46 
f 44/25/44 23/27/23 22/26/22 45/24/45 
f 47/28/47 43/22/43 46/23/46 48/29/48 
f 48/29/48 46/23/46 27/31/27 26/30/26 
f 46/23/46 45/24/45 22/32/22 27/31/27 
f 49/33/49 50/35/50 51/34/51 
f 31/36/31 47/28/47 48/29/48 26/37/26 
f 32/38/32 49/33/49 51/34/51 33/39/33 
f 52/38/52 32/39/32 28/34/28 30/33/30 
f 52/38/52 50/33/50 49/34/49 32/39/32 
# 40 polygons - 2 triangles

#
# object p_cam_base
#

v  -1.2517 -4.1441 -1.4235
v  -1.2517 -2.1218 -1.4235
v  -1.2517 -2.1218 -5.3296
v  -1.2517 -4.1441 -5.3296
v  -5.0000 -5.4448 -5.3296
v  -5.0000 4.5552 -5.3296
v  -5.0000 4.5552 -18.3821
v  -5.0000 -5.4448 -18.3821
v  -1.5273 -4.5142 3.8671
v  -3.0546 -4.5142 1.2218
v  0.0000 -4.5142 1.2218
v  0.0000 -4.5142 3.8671
v  -3.0546 -1.7517 1.2218
v  -1.5273 -1.7517 -1.4235
v  -1.5273 -4.5142 -1.4235
v  0.0000 -1.7517 -1.4235
v  0.0000 -4.5142 -1.4235
v  -1.5273 -1.7517 3.8671
v  0.0000 -1.7517 3.8671
v  0.0000 -1.7517 1.2218
v  0.0000 -4.1441 -5.3296
v  0.0000 -4.1441 -1.4235
v  0.0000 -2.1218 -1.4235
v  0.0000 -2.1218 -5.3296
v  0.0000 -5.4448 -18.3821
v  0.0000 -5.4448 -5.3296
v  0.0000 4.5552 -5.3296
v  0.0000 4.5552 -18.3821
v  1.2517 -4.1441 -1.4235
v  1.2517 -4.1441 -5.3296
v  1.2517 -2.1218 -5.3296
v  1.2517 -2.1218 -1.4235
v  5.0000 -5.4448 -5.3296
v  5.0000 -5.4448 -18.3821
v  5.0000 4.5552 -18.3821
v  5.0000 4.5552 -5.3296
v  1.5273 -4.5142 3.8671
v  3.0546 -4.5142 1.2218
v  1.5273 -4.5142 -1.4235
v  1.5273 -1.7517 -1.4235
v  3.0546 -1.7517 1.2218
v  1.5273 -1.7517 3.8671
# 42 vertices

vn -0.7071 -0.7071 0.0000
vn -0.7071 0.7071 -0.0000
vn -0.5774 -0.5774 0.5774
vn -0.5774 0.5774 0.5774
vn -0.7071 0.7071 0.0000
vn -0.7071 -0.7071 -0.0000
vn -0.3962 -0.6100 0.6862
vn -0.7924 -0.6100 0.0001
vn 0.0000 -1.0000 -0.0000
vn 0.0000 -0.7071 0.7071
vn -0.7924 0.6100 0.0000
vn -0.3962 0.6100 -0.6862
vn -0.3963 -0.6100 -0.6862
vn 0.0000 0.7071 -0.7071
vn 0.0000 -0.7071 -0.7071
vn -0.3962 0.6100 0.6862
vn 0.0000 0.7071 0.7071
vn 0.0000 1.0000 -0.0000
vn 0.0000 -1.0000 0.0000
vn 0.0000 1.0000 0.0000
vn 0.7071 -0.7071 0.0000
vn 0.7071 0.7071 -0.0000
vn 0.5774 -0.5774 0.5774
vn 0.7071 -0.7071 -0.0000
vn 0.7071 0.7071 0.0000
vn 0.5774 0.5774 0.5774
vn 0.3962 -0.6100 0.6862
vn 0.7924 -0.6100 0.0001
vn 0.3963 -0.6100 -0.6862
vn 0.3962 0.6100 -0.6862
vn 0.7924 0.6100 0.0000
vn 0.3962 0.6100 0.6862
# 32 vertex normals

vt 0.9057 0.1335 0.0000
vt 0.9057 0.1225 0.0000
vt 0.9319 0.1225 0.0000
vt 0.9319 0.1335 0.0000
vt 0.8189 0.1066 0.0000
vt 0.8189 0.0564 0.0000
vt 0.8858 0.0564 0.0000
vt 0.8858 0.1066 0.0000
vt 0.9290 0.1702 0.0000
vt 0.9098 0.1702 0.0000
vt 0.9098 0.1560 0.0000
vt 0.9290 0.1560 0.0000
vt 0.9098 0.1871 0.0000
vt 0.8900 0.1871 0.0000
vt 0.8900 0.1702 0.0000
vt 0.8710 0.1702 0.0000
vt 0.8710 0.1560 0.0000
vt 0.8900 0.1560 0.0000
vt 0.9290 0.1871 0.0000
vt 0.9290 0.1990 0.0000
vt 0.9098 0.1990 0.0000
vt 0.8900 0.1990 0.0000
vt 0.9319 0.1419 0.0000
vt 0.9057 0.1419 0.0000
vt 0.9057 0.1124 0.0000
vt 0.9319 0.1124 0.0000
vt 0.8858 0.1401 0.0000
vt 0.8189 0.1401 0.0000
vt 0.8189 0.0118 0.0000
vt 0.8858 0.0118 0.0000
vt 0.7742 0.1066 0.0000
vt 0.7742 0.0564 0.0000
vt 0.9472 0.1560 0.0000
vt 0.9472 0.1702 0.0000
# 34 texture coords

o p_cam_base
g p_cam_base
f 53/40/53 54/41/54 55/42/54 56/43/53 
f 57/44/55 58/45/56 59/46/57 60/47/58 
f 61/48/59 62/49/60 63/50/61 64/51/62 
f 62/49/60 65/52/63 66/53/64 67/54/65 
f 67/54/65 66/55/64 68/56/66 69/57/67 
f 61/48/59 70/58/68 65/52/63 62/49/60 
f 70/58/68 71/59/69 72/60/70 65/52/63 
f 65/52/63 72/60/70 68/61/66 66/53/64 
f 73/62/71 74/63/71 53/40/53 56/43/53 
f 75/64/70 76/65/70 55/42/54 54/41/54 
f 77/66/61 78/67/62 57/44/55 60/47/58 
f 79/68/69 80/69/72 59/46/57 58/45/56 
f 78/70/62 79/71/69 58/45/56 57/44/55 
f 64/51/62 71/72/69 70/73/68 61/48/59 
f 69/57/67 63/50/61 62/49/60 67/54/65 
f 81/40/73 82/43/73 83/42/74 84/41/74 
f 85/44/75 86/47/76 87/46/77 88/45/78 
f 89/48/79 64/51/62 63/50/61 90/49/80 
f 90/49/80 91/54/81 92/53/82 93/52/83 
f 91/54/81 69/57/67 68/56/66 92/55/82 
f 89/48/79 90/49/80 93/52/83 94/58/84 
f 94/58/84 93/52/83 72/60/70 71/59/69 
f 93/52/83 92/53/82 68/61/66 72/60/70 
f 73/62/71 82/43/73 81/40/73 74/63/71 
f 75/64/70 84/41/74 83/42/74 76/65/70 
f 77/66/61 86/47/76 85/44/75 78/67/62 
f 79/68/69 88/45/78 87/46/77 80/69/72 
f 78/70/62 85/44/75 88/45/78 79/71/69 
f 64/51/62 89/48/79 94/73/84 71/72/69 
f 69/57/67 91/54/81 90/49/80 63/50/61 
# 30 polygons

