# 3ds Max Wavefront OBJ Exporter v0.97b - (c)2007 guruware
# File Created: 09.01.2022 22:25:31

#
# object p_crate_2
#

v  19.9980 0.0000 -9.9990
v  19.9980 0.0000 -19.9980
v  19.9980 6.2693 -19.9980
v  19.9980 6.2693 -9.9990
v  19.9980 0.0000 -0.0000
v  19.9980 6.2693 0.0000
v  19.9980 0.0000 9.9990
v  19.9980 6.2693 9.9990
v  19.9980 0.0000 19.9980
v  19.9980 6.2693 19.9980
v  9.9990 0.0000 19.9980
v  9.9990 6.2693 19.9980
v  -0.0000 0.0000 19.9980
v  0.0000 6.2693 19.9980
v  -9.9990 0.0000 19.9980
v  -9.9990 6.2693 19.9980
v  -19.9980 0.0000 19.9980
v  -19.9980 6.2693 19.9980
v  -19.9980 0.0000 9.9990
v  -9.9990 0.0000 9.9990
v  -0.0000 0.0000 9.9990
v  9.9990 0.0000 9.9990
v  -19.9980 0.0000 0.0000
v  -9.9990 0.0000 -0.0000
v  -0.0000 0.0000 -0.0000
v  9.9990 0.0000 -0.0000
v  -19.9980 0.0000 -9.9990
v  -9.9990 0.0000 -9.9990
v  -0.0000 0.0000 -9.9990
v  9.9990 0.0000 -9.9990
v  -19.9980 0.0000 -19.9980
v  -9.9990 0.0000 -19.9980
v  -0.0000 0.0000 -19.9980
v  9.9990 0.0000 -19.9980
v  -19.9980 6.2693 -9.9990
v  -19.9980 6.2693 -19.9980
v  -19.9980 6.2693 0.0000
v  -19.9980 6.2693 9.9990
v  9.9990 6.2693 -19.9980
v  0.0000 6.2693 -19.9980
v  -9.9990 6.2693 -19.9980
v  18.0185 6.2693 -18.0185
v  18.0185 6.2693 -9.0093
v  18.0185 6.2693 0.0000
v  18.0185 6.2693 9.0093
v  18.0185 6.2693 18.0185
v  9.0093 6.2693 18.0185
v  0.0000 6.2693 18.0185
v  -9.0093 6.2693 18.0185
v  -18.0185 6.2693 18.0185
v  -18.0185 6.2693 -9.0093
v  -18.0185 6.2693 -18.0185
v  -18.0185 6.2693 0.0000
v  -18.0185 6.2693 9.0093
v  9.0093 6.2693 -18.0185
v  0.0000 6.2693 -18.0185
v  -9.0093 6.2693 -18.0185
v  17.9735 20.0000 -17.9735
v  17.9735 20.0000 -8.9868
v  17.9735 20.0000 0.0000
v  17.9735 20.0000 8.9867
v  17.9735 20.0000 17.9735
v  17.9735 30.0000 -17.9735
v  17.9735 30.0000 -8.9868
v  17.9735 30.0000 0.0000
v  17.9735 30.0000 8.9867
v  17.9735 30.0000 17.9735
v  17.9735 40.0000 -17.9735
v  17.9735 40.0000 -8.9867
v  17.9735 40.0000 -0.0000
v  17.9735 40.0000 8.9867
v  17.9735 40.0000 17.9735
v  8.9867 20.0000 17.9735
v  0.0000 20.0000 17.9735
v  -8.9867 20.0000 17.9735
v  -17.9735 20.0000 17.9735
v  8.9867 30.0000 17.9735
v  0.0000 30.0000 17.9735
v  -8.9867 30.0000 17.9735
v  -17.9735 30.0000 17.9735
v  8.9868 40.0000 17.9735
v  -0.0000 40.0000 17.9735
v  -8.9867 40.0000 17.9735
v  -17.9735 40.0000 17.9735
v  -8.9867 40.0000 8.9867
v  -17.9735 40.0000 8.9867
v  -0.0000 40.0000 8.9867
v  8.9868 40.0000 8.9867
v  -8.9867 40.0000 -0.0000
v  -17.9735 40.0000 0.0000
v  -0.0000 40.0000 -0.0000
v  8.9868 40.0000 -0.0000
v  -8.9867 40.0000 -8.9867
v  -17.9735 40.0000 -8.9867
v  -0.0000 40.0000 -8.9867
v  8.9868 40.0000 -8.9867
v  -8.9867 40.0000 -17.9735
v  -17.9735 40.0000 -17.9735
v  -0.0000 40.0000 -17.9735
v  8.9868 40.0000 -17.9735
v  -17.9735 20.0000 -8.9867
v  -17.9735 20.0000 -17.9735
v  -17.9735 20.0000 0.0000
v  -17.9735 20.0000 8.9867
v  -17.9735 30.0000 -8.9867
v  -17.9735 30.0000 -17.9735
v  -17.9735 30.0000 0.0000
v  -17.9735 30.0000 8.9867
v  8.9867 20.0000 -17.9735
v  0.0000 20.0000 -17.9735
v  -8.9867 20.0000 -17.9735
v  8.9867 30.0000 -17.9735
v  0.0000 30.0000 -17.9735
v  -8.9867 30.0000 -17.9735
# 114 vertices

vn 0.7071 -0.7071 0.0000
vn 0.5774 -0.5774 -0.5774
vn 0.5774 0.5774 -0.5774
vn 0.7071 0.7071 -0.0000
vn 0.7071 0.7071 0.0000
vn 0.7071 -0.7071 -0.0000
vn 0.5774 -0.5774 0.5773
vn 0.5774 0.5773 0.5774
vn 0.0000 -0.7071 0.7071
vn 0.0000 0.7071 0.7071
vn -0.0000 -0.7071 0.7071
vn -0.0000 0.7071 0.7071
vn -0.5774 -0.5774 0.5774
vn -0.5774 0.5774 0.5774
vn -0.7071 -0.7071 -0.0000
vn 0.0000 -1.0000 -0.0000
vn -0.5774 -0.5773 -0.5774
vn -0.0000 -0.7071 -0.7071
vn 0.0000 -0.7071 -0.7071
vn -0.7071 0.7071 -0.0000
vn -0.5773 0.5774 -0.5774
vn 0.0000 0.7071 -0.7071
vn -0.0000 0.7071 -0.7071
vn 0.3005 0.9052 -0.3005
vn 0.7059 0.7083 -0.0000
vn 0.7059 0.7083 0.0000
vn 0.3005 0.9052 0.3005
vn 0.0000 0.7083 0.7059
vn -0.0000 0.7083 0.7059
vn -0.3005 0.9052 0.3005
vn -0.7059 0.7083 -0.0000
vn -0.3005 0.9052 -0.3005
vn 0.0000 0.7083 -0.7059
vn -0.0000 0.7083 -0.7059
vn 0.7071 0.0023 -0.7071
vn 1.0000 0.0016 -0.0000
vn 1.0000 0.0016 0.0000
vn 0.7071 0.0023 0.7071
vn 0.7071 -0.0000 -0.7071
vn 1.0000 0.0000 -0.0000
vn 1.0000 0.0000 0.0000
vn 0.7071 0.0000 0.7071
vn 0.5774 0.5774 0.5773
vn 0.0000 0.0016 1.0000
vn -0.0000 0.0016 1.0000
vn -0.7071 0.0023 0.7071
vn 0.0000 -0.0000 1.0000
vn -0.0000 -0.0000 1.0000
vn 0.0000 0.0000 1.0000
vn -0.7071 0.0000 0.7071
vn 0.0000 1.0000 -0.0000
vn -0.5774 0.5773 -0.5774
vn -1.0000 0.0016 -0.0000
vn -0.7071 0.0023 -0.7071
vn -1.0000 0.0000 -0.0000
vn -0.7071 -0.0000 -0.7071
vn 0.0000 0.0016 -1.0000
vn -0.0000 0.0016 -1.0000
vn 0.0000 -0.0000 -1.0000
vn 0.0000 0.0000 -1.0000
vn -0.0000 0.0000 -1.0000
# 61 vertex normals

vt 0.6298 0.3999 0.0000
vt 0.5904 0.3999 0.0000
vt 0.5904 0.4245 0.0000
vt 0.6298 0.4245 0.0000
vt 0.6691 0.3999 0.0000
vt 0.6691 0.4245 0.0000
vt 0.7085 0.3999 0.0000
vt 0.7085 0.4245 0.0000
vt 0.7478 0.3999 0.0000
vt 0.7478 0.4245 0.0000
vt 0.7872 0.3999 0.0000
vt 0.7872 0.4245 0.0000
vt 0.8265 0.3999 0.0000
vt 0.8265 0.4245 0.0000
vt 0.8658 0.3999 0.0000
vt 0.8658 0.4245 0.0000
vt 0.9052 0.3999 0.0000
vt 0.9052 0.4245 0.0000
vt 0.8845 0.5966 0.0000
vt 0.8845 0.5573 0.0000
vt 0.8451 0.5573 0.0000
vt 0.8451 0.5966 0.0000
vt 0.8845 0.6359 0.0000
vt 0.8451 0.6359 0.0000
vt 0.8845 0.6753 0.0000
vt 0.8451 0.6753 0.0000
vt 0.8845 0.7146 0.0000
vt 0.8451 0.7146 0.0000
vt 0.8058 0.5573 0.0000
vt 0.8058 0.5966 0.0000
vt 0.8058 0.6359 0.0000
vt 0.8058 0.6753 0.0000
vt 0.8058 0.7146 0.0000
vt 0.7664 0.5573 0.0000
vt 0.7664 0.5966 0.0000
vt 0.7664 0.6359 0.0000
vt 0.7664 0.6753 0.0000
vt 0.7664 0.7146 0.0000
vt 0.7271 0.5573 0.0000
vt 0.7271 0.5966 0.0000
vt 0.7271 0.6359 0.0000
vt 0.7271 0.6753 0.0000
vt 0.7271 0.7146 0.0000
vt 0.7088 0.3997 0.0000
vt 0.7442 0.3997 0.0000
vt 0.7442 0.4077 0.0000
vt 0.7048 0.4077 0.0000
vt 0.6684 0.3997 0.0000
vt 0.6684 0.4077 0.0000
vt 0.6281 0.3997 0.0000
vt 0.6320 0.4077 0.0000
vt 0.5907 0.3997 0.0000
vt 0.5907 0.4077 0.0000
vt 0.7077 0.3999 0.0000
vt 0.7442 0.3999 0.0000
vt 0.7442 0.4079 0.0000
vt 0.7037 0.4079 0.0000
vt 0.6673 0.3999 0.0000
vt 0.6673 0.4079 0.0000
vt 0.6270 0.3999 0.0000
vt 0.6310 0.4079 0.0000
vt 0.5907 0.3999 0.0000
vt 0.5907 0.4079 0.0000
vt 0.5907 0.4000 0.0000
vt 0.6261 0.4000 0.0000
vt 0.6301 0.4080 0.0000
vt 0.5907 0.4080 0.0000
vt 0.6665 0.4000 0.0000
vt 0.6665 0.4080 0.0000
vt 0.7068 0.4000 0.0000
vt 0.7028 0.4080 0.0000
vt 0.7442 0.4000 0.0000
vt 0.7442 0.4080 0.0000
vt 0.6263 0.3999 0.0000
vt 0.6303 0.4079 0.0000
vt 0.6666 0.3999 0.0000
vt 0.6666 0.4079 0.0000
vt 0.7070 0.3999 0.0000
vt 0.7030 0.4079 0.0000
vt 0.5904 0.4786 0.0000
vt 0.6298 0.4786 0.0000
vt 0.6691 0.4786 0.0000
vt 0.7085 0.4786 0.0000
vt 0.7478 0.4786 0.0000
vt 0.5904 0.5179 0.0000
vt 0.6298 0.5179 0.0000
vt 0.6691 0.5179 0.0000
vt 0.7085 0.5179 0.0000
vt 0.7478 0.5179 0.0000
vt 0.5904 0.5573 0.0000
vt 0.6298 0.5573 0.0000
vt 0.6691 0.5573 0.0000
vt 0.7085 0.5573 0.0000
vt 0.7478 0.5573 0.0000
vt 0.7872 0.4786 0.0000
vt 0.8265 0.4786 0.0000
vt 0.8659 0.4786 0.0000
vt 0.9052 0.4786 0.0000
vt 0.7872 0.5179 0.0000
vt 0.8265 0.5179 0.0000
vt 0.8659 0.5179 0.0000
vt 0.9052 0.5179 0.0000
vt 0.7872 0.5573 0.0000
vt 0.8265 0.5573 0.0000
vt 0.8659 0.5573 0.0000
vt 0.9052 0.5573 0.0000
# 106 texture coords

o p_crate_2
g p_crate_2
f 1/1/1 2/2/2 3/3/3 4/4/4 
f 5/5/1 1/1/1 4/4/4 6/6/5 
f 7/7/6 5/5/1 6/6/5 8/8/4 
f 9/9/7 7/7/6 8/8/4 10/10/8 
f 11/11/9 9/9/7 10/10/8 12/12/10 
f 13/13/11 11/11/9 12/12/10 14/14/12 
f 15/15/9 13/13/11 14/14/12 16/16/10 
f 17/17/13 15/15/9 16/16/10 18/18/14 
f 15/19/9 17/20/13 19/21/15 20/22/16 
f 13/23/11 15/19/9 20/22/16 21/24/16 
f 11/25/9 13/23/11 21/24/16 22/26/16 
f 9/27/7 11/25/9 22/26/16 7/28/6 
f 20/22/16 19/21/15 23/29/15 24/30/16 
f 21/24/16 20/22/16 24/30/16 25/31/16 
f 22/26/16 21/24/16 25/31/16 26/32/16 
f 7/28/6 22/26/16 26/32/16 5/33/1 
f 24/30/16 23/29/15 27/34/15 28/35/16 
f 25/31/16 24/30/16 28/35/16 29/36/16 
f 26/32/16 25/31/16 29/36/16 30/37/16 
f 5/33/1 26/32/16 30/37/16 1/38/1 
f 28/35/16 27/34/15 31/39/17 32/40/18 
f 29/36/16 28/35/16 32/40/18 33/41/19 
f 30/37/16 29/36/16 33/41/19 34/42/19 
f 1/38/1 30/37/16 34/42/19 2/43/2 
f 27/1/15 35/4/20 36/3/21 31/2/17 
f 23/5/15 37/6/20 35/4/20 27/1/15 
f 19/7/15 38/8/20 37/6/20 23/5/15 
f 17/9/13 18/10/14 38/8/20 19/7/15 
f 34/11/19 39/12/22 3/10/3 2/9/2 
f 33/13/19 40/14/22 39/12/22 34/11/19 
f 32/15/18 41/16/23 40/14/22 33/13/19 
f 31/17/17 36/18/21 41/16/23 32/15/18 
f 4/44/4 3/45/3 42/46/24 43/47/25 
f 6/48/5 4/44/4 43/47/25 44/49/26 
f 8/50/4 6/48/5 44/49/26 45/51/25 
f 10/52/8 8/50/4 45/51/25 46/53/27 
f 12/54/10 10/55/8 46/56/27 47/57/28 
f 14/58/12 12/54/10 47/57/28 48/59/29 
f 16/60/10 14/58/12 48/59/29 49/61/28 
f 18/62/14 16/60/10 49/61/28 50/63/30 
f 36/64/21 35/65/20 51/66/31 52/67/32 
f 35/65/20 37/68/20 53/69/31 51/66/31 
f 37/68/20 38/70/20 54/71/31 53/69/31 
f 38/70/20 18/72/14 50/73/30 54/71/31 
f 3/62/3 39/74/22 55/75/33 42/63/24 
f 39/74/22 40/76/22 56/77/33 55/75/33 
f 40/76/22 41/78/23 57/79/34 56/77/33 
f 41/78/23 36/55/21 52/56/32 57/79/34 
f 43/4/25 42/3/24 58/80/35 59/81/36 
f 44/6/26 43/4/25 59/81/36 60/82/37 
f 45/8/25 44/6/26 60/82/37 61/83/36 
f 46/10/27 45/8/25 61/83/36 62/84/38 
f 59/81/36 58/80/35 63/85/39 64/86/40 
f 60/82/37 59/81/36 64/86/40 65/87/41 
f 61/83/36 60/82/37 65/87/41 66/88/40 
f 62/84/38 61/83/36 66/88/40 67/89/42 
f 64/86/40 63/85/39 68/90/3 69/91/5 
f 65/87/41 64/86/40 69/91/5 70/92/5 
f 66/88/40 65/87/41 70/92/5 71/93/4 
f 67/89/42 66/88/40 71/93/4 72/94/43 
f 47/12/28 46/10/27 62/84/38 73/95/44 
f 48/14/29 47/12/28 73/95/44 74/96/45 
f 49/16/28 48/14/29 74/96/45 75/97/44 
f 50/18/30 49/16/28 75/97/44 76/98/46 
f 73/95/44 62/84/38 67/89/42 77/99/47 
f 74/96/45 73/95/44 77/99/47 78/100/48 
f 75/97/44 74/96/45 78/100/48 79/101/49 
f 76/98/46 75/97/44 79/101/49 80/102/50 
f 77/99/47 67/89/42 72/94/43 81/103/10 
f 78/100/48 77/99/47 81/103/10 82/104/12 
f 79/101/49 78/100/48 82/104/12 83/105/10 
f 80/102/50 79/101/49 83/105/10 84/106/14 
f 83/19/10 85/22/51 86/21/20 84/20/14 
f 82/23/12 87/24/51 85/22/51 83/19/10 
f 81/25/10 88/26/51 87/24/51 82/23/12 
f 72/27/43 71/28/4 88/26/51 81/25/10 
f 85/22/51 89/30/51 90/29/20 86/21/20 
f 87/24/51 91/31/51 89/30/51 85/22/51 
f 88/26/51 92/32/51 91/31/51 87/24/51 
f 71/28/4 70/33/5 92/32/51 88/26/51 
f 89/30/51 93/35/51 94/34/20 90/29/20 
f 91/31/51 95/36/51 93/35/51 89/30/51 
f 92/32/51 96/37/51 95/36/51 91/31/51 
f 70/33/5 69/38/5 96/37/51 92/32/51 
f 93/35/51 97/40/23 98/39/52 94/34/20 
f 95/36/51 99/41/22 97/40/23 93/35/51 
f 96/37/51 100/42/22 99/41/22 95/36/51 
f 69/38/5 68/43/3 100/42/22 96/37/51 
f 51/4/31 101/81/53 102/80/54 52/3/32 
f 53/6/31 103/82/53 101/81/53 51/4/31 
f 54/8/31 104/83/53 103/82/53 53/6/31 
f 50/10/30 76/84/46 104/83/53 54/8/31 
f 101/81/53 105/86/55 106/85/56 102/80/54 
f 103/82/53 107/87/55 105/86/55 101/81/53 
f 104/83/53 108/88/55 107/87/55 103/82/53 
f 76/84/46 80/89/50 108/88/55 104/83/53 
f 105/86/55 94/91/20 98/90/52 106/85/56 
f 107/87/55 90/92/20 94/91/20 105/86/55 
f 108/88/55 86/93/20 90/92/20 107/87/55 
f 80/89/50 84/94/14 86/93/20 108/88/55 
f 55/12/33 109/95/57 58/84/35 42/10/24 
f 56/14/33 110/96/57 109/95/57 55/12/33 
f 57/16/34 111/97/58 110/96/57 56/14/33 
f 52/18/32 102/98/54 111/97/58 57/16/34 
f 109/95/57 112/99/59 63/89/39 58/84/35 
f 110/96/57 113/100/60 112/99/59 109/95/57 
f 111/97/58 114/101/61 113/100/60 110/96/57 
f 102/98/54 106/102/56 114/101/61 111/97/58 
f 112/99/59 100/103/22 68/94/3 63/89/39 
f 113/100/60 99/104/22 100/103/22 112/99/59 
f 114/101/61 97/105/23 99/104/22 113/100/60 
f 106/102/56 98/106/52 97/105/23 114/101/61 
# 112 polygons

