[api-updater (non-obsolete-error-filter)] 2/12/2022 7:51:22 PM : Starting C:/Program Files/Unity/Hub/Editor/2020.3.27f1/Editor/Data/Tools/ScriptUpdater/APIUpdater.NonObsoleteApiUpdaterDetector.exe
[api-updater (non-obsolete-error-filter)] 
----------------------------------
jit/startup time      : 554.2194ms
moved types parse time: 38ms
candidates parse time : 0ms
C# parse time         : 441ms
candidates check time : 21ms
console write time    : 0ms

