# 3ds Max Wavefront OBJ Exporter v0.97b - (c)2007 guruware
# File Created: 19.01.2022 00:10:14

#
# object shotgun_ammo
#

v  -7.0139 11.6263 -62.6217
v  -5.2944 11.6263 -59.6434
v  -7.0139 11.6263 -56.6652
v  -10.4528 11.6263 -62.6216
v  -5.2944 17.6715 -59.6434
v  -7.0139 17.6715 -56.6652
v  -7.0139 17.6715 -62.6217
v  -10.4528 17.6715 -62.6216
v  -6.6173 17.6715 -55.9784
v  -4.5013 17.6715 -59.6434
v  -4.5013 25.9084 -59.6434
v  -6.6173 25.9084 -55.9784
v  -6.6173 17.6715 -63.3085
v  -6.6173 25.9084 -63.3085
v  -10.8493 17.6715 -63.3085
v  -10.8493 25.9084 -63.3085
v  -7.0139 25.9084 -56.6652
v  -5.2944 25.9084 -59.6434
v  -5.2944 29.7617 -59.6434
v  -7.0139 29.7617 -56.6652
v  -7.0139 25.9084 -62.6217
v  -7.0139 29.7617 -62.6217
v  -10.4528 25.9084 -62.6216
v  -10.4528 29.7617 -62.6216
v  -12.1723 11.6263 -59.6434
v  -10.4528 11.6263 -56.6652
v  -10.4528 17.6715 -56.6652
v  -12.1723 17.6715 -59.6434
v  -10.8493 17.6715 -55.9784
v  -10.8493 25.9084 -55.9784
v  -12.9653 25.9084 -59.6434
v  -12.9653 17.6715 -59.6434
v  -10.4528 29.7617 -56.6652
v  -10.4528 25.9084 -56.6652
v  -12.1723 29.7617 -59.6434
v  -12.1723 25.9084 -59.6434
v  -7.0139 11.6263 -55.2916
v  -5.2944 11.6263 -52.3134
v  -7.0139 11.6263 -49.3352
v  -10.4528 11.6263 -55.2916
v  -5.2944 17.6715 -52.3134
v  -7.0139 17.6715 -49.3352
v  -7.0139 17.6715 -55.2916
v  -10.4528 17.6715 -55.2916
v  -6.6173 17.6715 -48.6484
v  -4.5013 17.6715 -52.3134
v  -4.5013 25.9084 -52.3134
v  -6.6173 25.9084 -48.6484
v  -7.0139 25.9084 -49.3352
v  -5.2944 25.9084 -52.3134
v  -5.2944 29.7617 -52.3134
v  -7.0139 29.7617 -49.3352
v  -7.0139 25.9084 -55.2916
v  -7.0139 29.7617 -55.2916
v  -10.4528 25.9084 -55.2916
v  -10.4528 29.7617 -55.2916
v  -12.1723 11.6263 -52.3134
v  -10.4528 11.6263 -49.3352
v  -10.4528 17.6715 -49.3352
v  -12.1723 17.6715 -52.3134
v  -10.8493 17.6715 -48.6484
v  -10.8493 25.9084 -48.6484
v  -12.9653 25.9084 -52.3134
v  -12.9653 17.6715 -52.3134
v  -10.4528 29.7617 -49.3352
v  -10.4528 25.9084 -49.3352
v  -12.1723 29.7617 -52.3134
v  -12.1723 25.9084 -52.3134
v  -7.0139 11.6263 -47.9616
v  -5.2944 11.6263 -44.9833
v  -7.0139 11.6263 -42.0051
v  -10.4528 11.6263 -47.9615
v  -5.2944 17.6715 -44.9833
v  -7.0139 17.6715 -42.0051
v  -7.0139 17.6715 -47.9616
v  -10.4528 17.6715 -47.9615
v  -6.6173 17.6715 -41.3183
v  -4.5013 17.6715 -44.9833
v  -4.5013 25.9084 -44.9833
v  -6.6173 25.9084 -41.3183
v  -7.0139 25.9084 -42.0051
v  -5.2944 25.9084 -44.9833
v  -5.2944 29.7617 -44.9833
v  -7.0139 29.7617 -42.0051
v  -7.0139 25.9084 -47.9616
v  -7.0139 29.7617 -47.9616
v  -10.4528 25.9084 -47.9615
v  -10.4528 29.7617 -47.9615
v  -12.1723 11.6263 -44.9833
v  -10.4528 11.6263 -42.0051
v  -10.4528 17.6715 -42.0051
v  -12.1723 17.6715 -44.9833
v  -10.8493 17.6715 -41.3183
v  -10.8493 25.9084 -41.3183
v  -12.9653 25.9084 -44.9833
v  -12.9653 17.6715 -44.9833
v  -10.4528 29.7617 -42.0051
v  -10.4528 25.9084 -42.0051
v  -12.1723 29.7617 -44.9833
v  -12.1723 25.9084 -44.9833
v  -7.0139 11.6263 -40.6315
v  -5.2944 11.6263 -37.6533
v  -7.0139 11.6263 -34.6751
v  -10.4528 11.6263 -40.6315
v  -5.2944 17.6715 -37.6533
v  -7.0139 17.6715 -34.6751
v  -7.0139 17.6715 -40.6315
v  -10.4528 17.6715 -40.6315
v  -6.6173 17.6715 -33.9883
v  -4.5013 17.6715 -37.6533
v  -4.5013 25.9084 -37.6533
v  -6.6173 25.9084 -33.9883
v  -7.0139 25.9084 -34.6751
v  -5.2944 25.9084 -37.6533
v  -5.2944 29.7617 -37.6533
v  -7.0139 29.7617 -34.6751
v  -7.0139 25.9084 -40.6315
v  -7.0139 29.7617 -40.6315
v  -10.4528 25.9084 -40.6315
v  -10.4528 29.7617 -40.6315
v  -12.1723 11.6263 -37.6533
v  -10.4528 11.6263 -34.6751
v  -10.4528 17.6715 -34.6751
v  -12.1723 17.6715 -37.6533
v  -10.8493 17.6715 -33.9883
v  -10.8493 25.9084 -33.9883
v  -12.9653 25.9084 -37.6533
v  -12.9653 17.6715 -37.6533
v  -10.4528 29.7617 -34.6751
v  -10.4528 25.9084 -34.6751
v  -12.1723 29.7617 -37.6533
v  -12.1723 25.9084 -37.6533
v  -7.0139 11.6263 -33.3015
v  -5.2944 11.6263 -30.3232
v  -7.0139 11.6263 -27.3450
v  -10.4528 11.6263 -33.3015
v  -5.2944 17.6715 -30.3232
v  -7.0139 17.6715 -27.3450
v  -7.0139 17.6715 -33.3015
v  -10.4528 17.6715 -33.3015
v  -6.6173 17.6715 -26.6582
v  -4.5013 17.6715 -30.3232
v  -4.5013 25.9084 -30.3232
v  -6.6173 25.9084 -26.6582
v  -7.0139 25.9084 -27.3450
v  -5.2944 25.9084 -30.3232
v  -5.2944 29.7617 -30.3232
v  -7.0139 29.7617 -27.3450
v  -7.0139 25.9084 -33.3015
v  -7.0139 29.7617 -33.3015
v  -10.4528 25.9084 -33.3015
v  -10.4528 29.7617 -33.3015
v  -12.1723 11.6263 -30.3232
v  -10.4528 11.6263 -27.3450
v  -10.4528 17.6715 -27.3450
v  -12.1723 17.6715 -30.3232
v  -10.8493 17.6715 -26.6582
v  -10.8493 25.9084 -26.6582
v  -12.9653 25.9084 -30.3232
v  -12.9653 17.6715 -30.3232
v  -10.4528 29.7617 -27.3450
v  -10.4528 25.9084 -27.3450
v  -12.1723 29.7617 -30.3232
v  -12.1723 25.9084 -30.3232
v  -7.0139 11.6263 -25.9714
v  -5.2944 11.6263 -22.9932
v  -7.0139 11.6263 -20.0150
v  -10.4528 11.6263 -25.9714
v  -5.2944 17.6715 -22.9932
v  -7.0139 17.6715 -20.0150
v  -7.0139 17.6715 -25.9714
v  -10.4528 17.6715 -25.9714
v  -6.6173 17.6715 -19.3282
v  -4.5013 17.6715 -22.9932
v  -4.5013 25.9084 -22.9932
v  -6.6173 25.9084 -19.3282
v  -7.0139 25.9084 -20.0150
v  -5.2944 25.9084 -22.9932
v  -5.2944 29.7617 -22.9932
v  -7.0139 29.7617 -20.0150
v  -7.0139 25.9084 -25.9714
v  -7.0139 29.7617 -25.9714
v  -10.4528 25.9084 -25.9714
v  -10.4528 29.7617 -25.9714
v  -12.1723 11.6263 -22.9932
v  -10.4528 11.6263 -20.0150
v  -10.4528 17.6715 -20.0150
v  -12.1723 17.6715 -22.9932
v  -10.8493 25.9084 -19.3282
v  -10.8493 17.6715 -19.3282
v  -12.9653 25.9084 -22.9932
v  -12.9653 17.6715 -22.9932
v  -10.4528 29.7617 -20.0150
v  -10.4528 25.9084 -20.0150
v  -12.1723 29.7617 -22.9932
v  -12.1723 25.9084 -22.9932
# 196 vertices

vn 0.3962 -0.6100 -0.6862
vn 0.7924 -0.6100 0.0000
vn 0.3962 -0.6100 0.6862
vn -0.3962 -0.6100 -0.6862
vn 0.5447 -0.8386 0.0000
vn 0.2724 -0.8386 0.4717
vn 0.2724 -0.8386 -0.4717
vn -0.2724 -0.8386 -0.4717
vn 0.7924 -0.6100 -0.0001
vn 0.7924 0.6100 -0.0001
vn 0.5447 0.8387 -0.0000
vn 0.3962 0.6100 -0.6862
vn -0.3962 0.6100 -0.6862
vn 0.2724 0.8386 0.4717
vn 0.5447 0.8386 0.0000
vn 0.7924 0.6100 0.0000
vn 0.3962 0.6100 0.6862
vn 0.2724 0.8386 -0.4717
vn -0.2724 0.8386 -0.4717
vn -0.7924 -0.6100 -0.0000
vn -0.3962 -0.6100 0.6862
vn -0.2724 -0.8386 0.4717
vn -0.5447 -0.8386 -0.0000
vn -0.5447 -0.8386 0.0000
vn -0.5447 0.8386 0.0000
vn -0.7924 0.6100 -0.0000
vn -0.3962 0.6100 0.6862
vn -0.2724 0.8386 0.4717
vn -0.5447 0.8386 -0.0000
vn -0.7924 0.6100 0.0000
vn -0.7924 -0.6100 0.0000
vn 0.5447 -0.8386 -0.0000
vn 0.7924 -0.6100 -0.0000
vn 0.7924 0.6100 -0.0000
vn 0.5447 0.8386 -0.0000
vn -0.7924 -0.6100 -0.0001
vn -0.3961 -0.6100 0.6862
vn -0.2723 -0.8387 0.4717
vn -0.5447 -0.8387 -0.0000
vn -0.5447 0.8387 -0.0000
vn -0.7924 0.6100 -0.0001
vn -0.3961 0.6100 0.6862
vn -0.2723 0.8387 0.4717
# 43 vertex normals

vt 0.6940 0.9116 0.2328
vt 0.6940 0.9484 0.0000
vt 0.6739 0.9642 -0.4656
vt 0.6739 0.8958 0.4656
vt 0.6940 0.9815 0.4656
vt 0.7340 0.9484 0.4656
vt 0.7340 0.9815 0.4656
vt 0.7340 0.9116 0.4656
vt 0.6940 0.8800 0.4656
vt 0.7340 0.8800 0.4656
vt 0.7430 0.9815 0.4656
vt 0.7430 0.9484 0.4656
vt 0.7984 0.9484 0.4656
vt 0.7984 0.9815 0.4656
vt 0.7430 0.9116 0.4656
vt 0.7984 0.9116 0.4656
vt 0.7430 0.8800 0.4656
vt 0.7984 0.8800 0.4656
vt 0.8074 0.9815 0.4656
vt 0.8074 0.9484 0.4656
vt 0.8328 0.9484 0.0000
vt 0.8328 0.9815 0.4656
vt 0.8074 0.9116 0.4656
vt 0.8328 0.9116 0.4656
vt 0.8074 0.8800 0.4656
vt 0.8328 0.8800 0.4656
vt 0.8561 0.8958 0.4656
vt 0.8561 0.9642 -0.4656
# 28 texture coords

o shotgun_ammo
g shotgun_ammo
f 1/1/1 2/2/2 3/3/3 4/4/4 
f 3/5/3 2/2/2 5/6/5 6/7/6 
f 2/2/2 1/1/1 7/8/7 5/6/5 
f 1/1/1 4/9/4 8/10/8 7/8/7 
f 9/11/5 10/12/9 11/13/10 12/14/11 
f 10/12/9 13/15/1 14/16/12 11/13/10 
f 13/15/1 15/17/4 16/18/13 14/16/12 
f 17/19/14 18/20/15 19/21/16 20/22/17 
f 18/20/15 21/23/18 22/24/12 19/21/16 
f 21/23/18 23/25/19 24/26/13 22/24/12 
f 22/24/12 24/27/13 20/28/17 19/21/16 
f 6/7/6 5/6/5 10/12/9 9/11/5 
f 5/6/5 7/8/7 13/15/1 10/12/9 
f 7/8/7 8/10/8 15/17/4 13/15/1 
f 23/25/19 21/23/18 14/16/12 16/18/13 
f 21/23/18 18/20/15 11/13/10 14/16/12 
f 18/20/15 17/19/14 12/14/11 11/13/10 
f 25/1/20 4/4/4 3/3/3 26/2/21 
f 3/5/3 6/7/6 27/6/22 26/2/21 
f 26/2/21 27/6/22 28/8/23 25/1/20 
f 25/1/20 28/8/23 8/10/8 4/9/4 
f 29/12/24 30/13/25 31/16/26 32/15/20 
f 32/15/20 31/16/26 16/18/13 15/17/4 
f 17/19/14 20/22/17 33/21/27 34/20/28 
f 34/20/28 33/21/27 35/24/26 36/23/29 
f 36/23/29 35/24/26 24/26/13 23/25/19 
f 35/24/26 33/21/27 20/28/17 24/27/13 
f 6/7/6 9/11/5 29/12/24 27/6/22 
f 27/6/22 29/12/24 32/15/20 28/8/23 
f 28/8/23 32/15/20 15/17/4 8/10/8 
f 23/25/19 16/18/13 31/16/26 36/23/29 
f 36/23/29 31/16/26 30/13/25 34/20/28 
f 34/20/28 30/13/25 12/14/11 17/19/14 
f 37/1/1 38/2/2 39/3/3 40/4/4 
f 39/5/3 38/2/2 41/6/5 42/7/6 
f 38/2/2 37/1/1 43/8/7 41/6/5 
f 37/1/1 40/9/4 44/10/8 43/8/7 
f 45/11/5 46/12/9 47/13/10 48/14/11 
f 46/12/9 9/15/5 12/16/11 47/13/10 
f 49/19/14 50/20/15 51/21/16 52/22/17 
f 50/20/15 53/23/18 54/24/12 51/21/16 
f 53/23/18 55/25/19 56/26/13 54/24/12 
f 54/24/12 56/27/13 52/28/17 51/21/16 
f 42/7/6 41/6/5 46/12/9 45/11/5 
f 41/6/5 43/8/7 9/15/5 46/12/9 
f 43/8/7 44/10/8 29/17/24 9/15/5 
f 55/25/19 53/23/18 12/16/11 30/18/25 
f 53/23/18 50/20/15 47/13/10 12/16/11 
f 50/20/15 49/19/14 48/14/11 47/13/10 
f 57/1/20 40/4/4 39/3/3 58/2/21 
f 39/5/3 42/7/6 59/6/22 58/2/21 
f 58/2/21 59/6/22 60/8/23 57/1/20 
f 57/1/20 60/8/23 44/10/8 40/9/4 
f 61/12/24 62/13/25 63/16/30 64/15/31 
f 64/15/31 63/16/30 30/18/25 29/17/24 
f 49/19/14 52/22/17 65/21/27 66/20/28 
f 66/20/28 65/21/27 67/24/26 68/23/29 
f 68/23/29 67/24/26 56/26/13 55/25/19 
f 67/24/26 65/21/27 52/28/17 56/27/13 
f 42/7/6 45/11/5 61/12/24 59/6/22 
f 59/6/22 61/12/24 64/15/31 60/8/23 
f 60/8/23 64/15/31 29/17/24 44/10/8 
f 55/25/19 30/18/25 63/16/30 68/23/29 
f 68/23/29 63/16/30 62/13/25 66/20/28 
f 66/20/28 62/13/25 48/14/11 49/19/14 
f 69/1/1 70/2/2 71/3/3 72/4/4 
f 71/5/3 70/2/2 73/6/5 74/7/6 
f 70/2/2 69/1/1 75/8/7 73/6/5 
f 69/1/1 72/9/4 76/10/8 75/8/7 
f 77/11/5 78/12/9 79/13/10 80/14/11 
f 78/12/9 45/15/5 48/16/11 79/13/10 
f 81/19/14 82/20/15 83/21/16 84/22/17 
f 82/20/15 85/23/18 86/24/12 83/21/16 
f 85/23/18 87/25/19 88/26/13 86/24/12 
f 86/24/12 88/27/13 84/28/17 83/21/16 
f 74/7/6 73/6/5 78/12/9 77/11/5 
f 73/6/5 75/8/7 45/15/5 78/12/9 
f 75/8/7 76/10/8 61/17/24 45/15/5 
f 87/25/19 85/23/18 48/16/11 62/18/25 
f 85/23/18 82/20/15 79/13/10 48/16/11 
f 82/20/15 81/19/14 80/14/11 79/13/10 
f 89/1/20 72/4/4 71/3/3 90/2/21 
f 71/5/3 74/7/6 91/6/22 90/2/21 
f 90/2/21 91/6/22 92/8/23 89/1/20 
f 89/1/20 92/8/23 76/10/8 72/9/4 
f 93/12/24 94/13/25 95/16/30 96/15/31 
f 96/15/31 95/16/30 62/18/25 61/17/24 
f 81/19/14 84/22/17 97/21/27 98/20/28 
f 98/20/28 97/21/27 99/24/26 100/23/29 
f 100/23/29 99/24/26 88/26/13 87/25/19 
f 99/24/26 97/21/27 84/28/17 88/27/13 
f 74/7/6 77/11/5 93/12/24 91/6/22 
f 91/6/22 93/12/24 96/15/31 92/8/23 
f 92/8/23 96/15/31 61/17/24 76/10/8 
f 87/25/19 62/18/25 95/16/30 100/23/29 
f 100/23/29 95/16/30 94/13/25 98/20/28 
f 98/20/28 94/13/25 80/14/11 81/19/14 
f 101/1/1 102/2/2 103/3/3 104/4/4 
f 103/5/3 102/2/2 105/6/5 106/7/6 
f 102/2/2 101/1/1 107/8/7 105/6/5 
f 101/1/1 104/9/4 108/10/8 107/8/7 
f 109/11/5 110/12/9 111/13/10 112/14/11 
f 110/12/9 77/15/5 80/16/11 111/13/10 
f 113/19/14 114/20/15 115/21/16 116/22/17 
f 114/20/15 117/23/18 118/24/12 115/21/16 
f 117/23/18 119/25/19 120/26/13 118/24/12 
f 118/24/12 120/27/13 116/28/17 115/21/16 
f 106/7/6 105/6/5 110/12/9 109/11/5 
f 105/6/5 107/8/7 77/15/5 110/12/9 
f 107/8/7 108/10/8 93/17/24 77/15/5 
f 119/25/19 117/23/18 80/16/11 94/18/25 
f 117/23/18 114/20/15 111/13/10 80/16/11 
f 114/20/15 113/19/14 112/14/11 111/13/10 
f 121/1/20 104/4/4 103/3/3 122/2/21 
f 103/5/3 106/7/6 123/6/22 122/2/21 
f 122/2/21 123/6/22 124/8/23 121/1/20 
f 121/1/20 124/8/23 108/10/8 104/9/4 
f 125/12/24 126/13/25 127/16/30 128/15/31 
f 128/15/31 127/16/30 94/18/25 93/17/24 
f 113/19/14 116/22/17 129/21/27 130/20/28 
f 130/20/28 129/21/27 131/24/26 132/23/29 
f 132/23/29 131/24/26 120/26/13 119/25/19 
f 131/24/26 129/21/27 116/28/17 120/27/13 
f 106/7/6 109/11/5 125/12/24 123/6/22 
f 123/6/22 125/12/24 128/15/31 124/8/23 
f 124/8/23 128/15/31 93/17/24 108/10/8 
f 119/25/19 94/18/25 127/16/30 132/23/29 
f 132/23/29 127/16/30 126/13/25 130/20/28 
f 130/20/28 126/13/25 112/14/11 113/19/14 
f 133/1/1 134/2/2 135/3/3 136/4/4 
f 135/5/3 134/2/2 137/6/5 138/7/6 
f 134/2/2 133/1/1 139/8/7 137/6/5 
f 133/1/1 136/9/4 140/10/8 139/8/7 
f 141/11/32 142/12/33 143/13/34 144/14/35 
f 142/12/33 109/15/5 112/16/11 143/13/34 
f 145/19/14 146/20/15 147/21/16 148/22/17 
f 146/20/15 149/23/18 150/24/12 147/21/16 
f 149/23/18 151/25/19 152/26/13 150/24/12 
f 150/24/12 152/27/13 148/28/17 147/21/16 
f 138/7/6 137/6/5 142/12/33 141/11/32 
f 137/6/5 139/8/7 109/15/5 142/12/33 
f 139/8/7 140/10/8 125/17/24 109/15/5 
f 151/25/19 149/23/18 112/16/11 126/18/25 
f 149/23/18 146/20/15 143/13/34 112/16/11 
f 146/20/15 145/19/14 144/14/35 143/13/34 
f 153/1/36 136/4/4 135/3/3 154/2/37 
f 135/5/3 138/7/6 155/6/38 154/2/37 
f 154/2/37 155/6/38 156/8/39 153/1/36 
f 153/1/36 156/8/39 140/10/8 136/9/4 
f 157/12/39 158/13/40 159/16/41 160/15/36 
f 160/15/36 159/16/41 126/18/25 125/17/24 
f 145/19/14 148/22/17 161/21/42 162/20/43 
f 162/20/43 161/21/42 163/24/41 164/23/40 
f 164/23/40 163/24/41 152/26/13 151/25/19 
f 163/24/41 161/21/42 148/28/17 152/27/13 
f 138/7/6 141/11/32 157/12/39 155/6/38 
f 155/6/38 157/12/39 160/15/36 156/8/39 
f 156/8/39 160/15/36 125/17/24 140/10/8 
f 151/25/19 126/18/25 159/16/41 164/23/40 
f 164/23/40 159/16/41 158/13/40 162/20/43 
f 162/20/43 158/13/40 144/14/35 145/19/14 
f 165/1/1 166/2/2 167/3/3 168/4/4 
f 167/5/3 166/2/2 169/6/5 170/7/6 
f 166/2/2 165/1/1 171/8/7 169/6/5 
f 165/1/1 168/9/4 172/10/8 171/8/7 
f 173/11/3 174/12/2 175/13/34 176/14/17 
f 174/12/2 141/15/32 144/16/35 175/13/34 
f 177/19/14 178/20/15 179/21/16 180/22/17 
f 178/20/15 181/23/18 182/24/12 179/21/16 
f 181/23/18 183/25/19 184/26/13 182/24/12 
f 182/24/12 184/27/13 180/28/17 179/21/16 
f 170/7/6 169/6/5 174/12/2 173/11/3 
f 169/6/5 171/8/7 141/15/32 174/12/2 
f 171/8/7 172/10/8 157/17/39 141/15/32 
f 183/25/19 181/23/18 144/16/35 158/18/40 
f 181/23/18 178/20/15 175/13/34 144/16/35 
f 178/20/15 177/19/14 176/14/17 175/13/34 
f 185/1/36 168/4/4 167/3/3 186/2/37 
f 167/5/3 170/7/6 187/6/38 186/2/37 
f 186/2/37 187/6/38 188/8/39 185/1/36 
f 185/1/36 188/8/39 172/10/8 168/9/4 
f 173/11/3 176/14/17 189/13/27 190/12/21 
f 190/12/21 189/13/27 191/16/30 192/15/31 
f 192/15/31 191/16/30 158/18/40 157/17/39 
f 177/19/14 180/22/17 193/21/42 194/20/43 
f 194/20/43 193/21/42 195/24/41 196/23/40 
f 196/23/40 195/24/41 184/26/13 183/25/19 
f 195/24/41 193/21/42 180/28/17 184/27/13 
f 170/7/6 173/11/3 190/12/21 187/6/38 
f 187/6/38 190/12/21 192/15/31 188/8/39 
f 188/8/39 192/15/31 157/17/39 172/10/8 
f 183/25/19 158/18/40 191/16/30 196/23/40 
f 196/23/40 191/16/30 189/13/27 194/20/43 
f 194/20/43 189/13/27 176/14/17 177/19/14 
# 194 polygons

#
# object shotgun_silencer
#

v  2.6252 30.7105 -173.2259
v  5.9790 25.5431 -173.2259
v  5.9790 25.5431 -193.8421
v  2.6252 30.7105 -193.8421
v  5.9790 18.5322 -173.2259
v  5.9790 18.5322 -193.8421
v  5.9790 25.5431 -240.1519
v  5.9790 25.5431 -256.8437
v  2.6252 30.7105 -256.8437
v  2.6252 30.7105 -240.1519
v  5.9790 11.5214 -240.1519
v  5.9790 11.5214 -256.8437
v  5.9790 18.5322 -256.8437
v  5.9790 18.5322 -240.1519
v  5.9790 25.5431 -216.9970
v  2.6252 30.7105 -216.9970
v  5.9790 11.5214 -193.8421
v  5.9790 11.5214 -216.9970
v  5.9790 18.5322 -216.9970
v  0.0000 30.7105 -173.2259
v  0.0000 25.5431 -173.2259
v  0.0000 30.7105 -256.8437
v  0.0000 30.7105 -240.1519
v  0.0000 18.5322 -256.8437
v  0.0000 29.1270 -256.8437
v  5.9790 11.5214 -173.2259
v  0.0000 9.6190 -173.2259
v  0.0000 9.6190 -193.8421
v  0.0000 17.5811 -173.2259
v  0.0000 30.7105 -216.9970
v  0.0000 9.6190 -240.1519
v  0.0000 9.6190 -256.8437
v  0.0000 9.6190 -216.9970
v  0.0000 30.7105 -193.8421
v  -2.6252 30.7105 -173.2259
v  -2.6252 30.7105 -193.8421
v  -5.9790 25.5431 -193.8421
v  -5.9790 25.5431 -173.2259
v  -5.9790 18.5322 -193.8421
v  -5.9790 18.5322 -173.2259
v  -5.9790 25.5431 -240.1519
v  -2.6252 30.7105 -240.1519
v  -2.6252 30.7105 -256.8437
v  -5.9790 25.5431 -256.8437
v  -5.9790 11.5214 -240.1519
v  -5.9790 18.5322 -240.1519
v  -5.9790 18.5322 -256.8437
v  -5.9790 11.5214 -256.8437
v  -2.6252 30.7105 -216.9970
v  -5.9790 25.5431 -216.9970
v  -5.9790 11.5214 -193.8421
v  -5.9790 18.5322 -216.9970
v  -5.9790 11.5214 -216.9970
v  -5.9790 11.5214 -173.2259
# 54 vertices

vn 0.3768 0.6937 0.6138
vn 0.7299 0.2161 0.6484
vn 0.9589 0.2839 -0.0000
vn 0.4773 0.8788 -0.0000
vn 0.7071 0.0000 0.7071
vn 1.0000 0.0000 -0.0000
vn 0.7299 0.2161 -0.6484
vn 0.3768 0.6937 -0.6138
vn 0.8072 -0.5903 -0.0000
vn 0.6486 -0.4743 -0.5953
vn 0.7071 -0.0000 -0.7071
vn 1.0000 -0.0000 -0.0000
vn 0.0000 0.7071 0.7071
vn 0.0000 0.0000 1.0000
vn 0.0000 0.7071 -0.7071
vn 0.0000 1.0000 -0.0000
vn 0.0000 0.0000 -1.0000
vn 0.6486 -0.4742 0.5953
vn -0.0000 -0.7643 0.6448
vn 0.0000 -1.0000 -0.0000
vn -0.0000 -0.7643 -0.6448
vn -0.3768 0.6937 0.6138
vn -0.4773 0.8788 -0.0000
vn -0.9589 0.2839 -0.0000
vn -0.7299 0.2161 0.6484
vn -1.0000 -0.0000 -0.0000
vn -0.7071 0.0000 0.7071
vn -0.3768 0.6937 -0.6138
vn -0.7299 0.2161 -0.6484
vn -0.8072 -0.5903 -0.0000
vn -1.0000 0.0000 -0.0000
vn -0.7071 0.0000 -0.7071
vn -0.6486 -0.4743 -0.5953
vn -0.6486 -0.4743 0.5953
# 34 vertex normals

vt 0.0332 0.8601 0.0000
vt 0.0332 0.8358 0.0000
vt 0.1301 0.8358 0.0000
vt 0.1301 0.8601 0.0000
vt 0.0332 0.7984 0.0000
vt 0.1301 0.7984 0.0000
vt 0.3477 0.8358 0.0000
vt 0.4262 0.8358 0.0000
vt 0.4099 0.8601 0.0000
vt 0.3477 0.8601 0.0000
vt 0.3477 0.7610 0.0000
vt 0.4262 0.7610 0.0000
vt 0.4262 0.7984 0.0000
vt 0.3477 0.7984 0.0000
vt 0.2389 0.8358 0.0000
vt 0.2389 0.8601 0.0000
vt 0.1301 0.7610 0.0000
vt 0.2389 0.7610 0.0000
vt 0.2389 0.7984 0.0000
vt 0.0142 0.8601 0.0000
vt 0.0134 0.8372 0.0000
vt 0.4099 0.8837 0.0000
vt 0.3477 0.8837 0.0000
vt 0.4494 0.8029 0.0000
vt 0.4497 0.8544 0.0000
vt 0.0332 0.7610 0.0000
vt 0.0332 0.7374 0.0000
vt 0.1301 0.7374 0.0000
vt 0.0097 0.8070 0.0000
vt 0.0097 0.7610 0.0000
vt 0.4262 0.8650 0.0000
vt 0.4497 0.8651 0.0000
vt 0.2389 0.8837 0.0000
vt 0.3477 0.7374 0.0000
vt 0.4262 0.7374 0.0000
vt 0.2389 0.7374 0.0000
vt 0.1301 0.8837 0.0000
vt 0.0332 0.8837 0.0000
vt 0.4497 0.7610 0.0000
# 39 texture coords

o shotgun_silencer
g shotgun_silencer
f 197/29/44 198/30/45 199/31/46 200/32/47 
f 198/30/45 201/33/48 202/34/49 199/31/46 
f 203/35/46 204/36/50 205/37/51 206/38/47 
f 207/39/52 208/40/53 209/41/54 210/42/49 
f 199/31/46 211/43/46 212/44/47 200/32/47 
f 213/45/52 214/46/52 215/47/55 202/34/49 
f 211/43/46 203/35/46 206/38/47 212/44/47 
f 214/46/52 207/39/52 210/42/49 215/47/55 
f 198/30/45 197/29/44 216/48/56 217/49/57 
f 206/38/47 205/37/51 218/50/58 219/51/59 
f 204/36/50 209/41/54 220/52/60 221/53/60 
f 213/45/52 222/54/61 223/55/62 224/56/63 
f 222/54/61 201/33/48 225/57/57 223/58/62 
f 205/59/51 204/36/50 221/53/60 218/60/58 
f 212/44/47 206/38/47 219/51/59 226/61/59 
f 208/40/53 207/39/52 227/62/63 228/63/64 
f 214/46/52 213/45/52 224/56/63 229/64/63 
f 197/29/44 200/32/47 230/65/59 216/66/56 
f 200/32/47 212/44/47 226/61/59 230/65/59 
f 207/39/52 214/46/52 229/64/63 227/62/63 
f 231/29/65 232/32/66 233/31/67 234/30/68 
f 234/30/68 233/31/67 235/34/69 236/33/70 
f 237/35/67 238/38/66 239/37/71 240/36/72 
f 241/39/73 242/42/74 243/41/75 244/40/76 
f 233/31/67 232/32/66 245/44/66 246/43/67 
f 247/45/73 235/34/69 248/47/69 249/46/73 
f 246/43/67 245/44/66 238/38/66 237/35/67 
f 249/46/73 248/47/69 242/42/74 241/39/73 
f 234/30/68 217/49/57 216/48/56 231/29/65 
f 238/38/66 219/51/59 218/50/58 239/37/71 
f 240/36/72 221/53/60 220/52/60 243/41/75 
f 247/45/73 224/56/63 223/55/62 250/54/77 
f 250/54/77 223/58/62 225/57/57 236/33/70 
f 239/59/71 218/60/58 221/53/60 240/36/72 
f 245/44/66 226/61/59 219/51/59 238/38/66 
f 244/40/76 228/63/64 227/62/63 241/39/73 
f 249/46/73 229/64/63 224/56/63 247/45/73 
f 231/29/65 216/66/56 230/65/59 232/32/66 
f 232/32/66 230/65/59 226/61/59 245/44/66 
f 241/39/73 227/62/63 229/64/63 249/46/73 
f 201/33/48 222/54/61 213/45/52 202/34/49 
f 209/41/54 204/36/50 203/35/46 210/42/49 
f 215/47/55 211/43/46 199/31/46 202/34/49 
f 210/42/49 203/35/46 211/43/46 215/47/55 
f 209/41/54 208/40/53 228/67/64 220/52/60 
f 201/33/48 198/30/45 217/49/57 225/57/57 
f 235/34/69 247/45/73 250/54/77 236/33/70 
f 242/42/74 237/35/67 240/36/72 243/41/75 
f 235/34/69 233/31/67 246/43/67 248/47/69 
f 248/47/69 246/43/67 237/35/67 242/42/74 
f 220/52/60 228/67/64 244/40/76 243/41/75 
f 225/57/57 217/49/57 234/30/68 236/33/70 
# 52 polygons

#
# object shotgun_body
#

v  3.2328 10.4968 7.7218
v  4.5013 12.6119 -2.3188
v  4.5013 20.6940 -2.3188
v  3.2328 20.6940 9.4085
v  4.5013 24.9660 -0.6929
v  3.2328 22.4967 8.1761
v  4.5013 20.6940 -10.2276
v  3.2328 12.6119 -7.2981
v  4.5013 12.6119 -24.8947
v  4.5013 20.6940 -24.8947
v  4.5013 27.8367 -10.2276
v  4.5013 27.8367 -24.8947
v  4.5013 20.6940 -35.9180
v  4.5013 12.6119 -35.9180
v  4.5013 12.6119 -50.2064
v  4.5013 20.6940 -50.2064
v  4.5013 27.8367 -35.9180
v  4.5013 27.8367 -50.2064
v  6.2474 20.6940 -64.4947
v  6.1473 12.1685 -64.4947
v  6.1473 12.1685 -79.2944
v  6.2474 20.6940 -79.2944
v  6.1762 28.6157 -64.4946
v  6.1699 28.6293 -79.3226
v  6.1636 28.6428 -94.1506
v  6.2474 20.6940 -94.0942
v  6.2474 20.6940 -99.7318
v  6.1862 26.9951 -99.7739
v  6.2474 20.6940 -116.3569
v  6.2474 20.6940 -132.9820
v  6.1795 26.7105 -132.9960
v  6.1829 26.7007 -116.3850
v  6.2474 20.6940 -149.6070
v  6.2474 20.6940 -154.8426
v  6.1762 26.7122 -154.8426
v  6.1762 26.7203 -149.6070
v  3.2328 7.4346 3.1944
v  3.2328 1.5355 3.6764
v  4.5013 0.0000 -0.0000
v  4.5013 5.3348 -2.3188
v  3.2328 -15.5315 1.8780
v  4.5013 -13.9351 6.5503
v  3.2328 -19.2235 9.2218
v  3.2328 -19.2235 1.0540
v  3.2328 -8.9966 -0.5908
v  4.5013 -7.2509 3.4198
v  3.2328 4.1891 -7.2981
v  3.2328 -12.1760 11.7925
v  3.2328 -17.6735 12.6140
v  3.2328 -4.8595 8.8529
v  3.2328 -1.5361 -3.6285
v  1.6164 20.6940 11.8042
v  1.6164 10.4968 10.1175
v  2.2507 24.7492 8.8417
v  2.2507 30.4907 -10.2276
v  2.2507 27.6200 -0.6929
v  2.2507 30.4907 -35.9180
v  2.2507 30.4907 -24.8947
v  4.5013 12.6119 -64.4947
v  2.2507 10.4968 -50.2064
v  2.2507 10.4968 -64.4947
v  2.2507 30.4907 -50.2064
v  6.1473 12.1685 -94.0942
v  3.0025 9.2978 -79.2944
v  3.0025 9.2978 -94.0942
v  4.4063 31.6585 -79.3689
v  4.4278 31.6572 -64.4947
v  4.4660 30.1439 -99.8850
v  4.3848 31.6599 -94.2430
v  4.4278 30.1653 -154.8425
v  4.4278 30.1653 -149.6070
v  4.4405 30.1582 -133.0330
v  4.4533 30.1510 -116.4590
v  1.6164 7.4346 5.5901
v  1.6164 1.5355 6.0722
v  2.2507 -16.7321 -1.0515
v  2.2507 -9.7358 -2.9327
v  1.6164 -12.1760 14.1883
v  1.6164 -17.6735 15.0097
v  2.2507 -20.2907 -1.8755
v  2.2507 -20.2907 9.2218
v  1.6164 -4.8595 11.2486
v  2.2507 -2.6569 -5.9533
v  2.2507 3.2351 -10.2276
v  6.1473 12.1685 -99.7318
v  3.0025 9.2978 -99.7318
v  6.1473 12.1685 -116.3569
v  6.1473 12.1685 -132.9820
v  3.0025 9.2978 -116.3569
v  3.0025 9.2978 -132.9820
v  6.1473 12.1685 -149.6070
v  6.1473 12.1685 -154.8426
v  3.0025 9.2978 -149.6070
v  3.0025 9.2978 -154.8426
v  2.2507 10.4968 -10.2276
v  2.2507 10.4968 -24.8947
v  2.2507 10.4968 -35.9180
v  4.5013 20.6940 -64.4947
v  4.5013 27.8367 -64.4947
v  2.2507 30.4907 -64.4947
v  0.0000 20.6940 11.8042
v  0.0000 10.4968 10.1175
v  0.0000 24.7492 8.8417
v  0.0000 30.4907 -10.2276
v  0.0000 27.6200 -0.6929
v  0.0000 30.4907 -35.9180
v  0.0000 30.4907 -24.8947
v  0.0000 10.4968 -50.2064
v  0.0000 10.4968 -64.4947
v  0.0000 30.4907 -50.2064
v  3.0025 9.2978 -64.4947
v  0.0000 9.1684 -64.4947
v  0.0000 9.1684 -79.2944
v  0.0000 31.8080 -94.2656
v  0.0000 31.8135 -79.3801
v  0.0000 30.3162 -99.9031
v  0.0000 30.3273 -154.8425
v  0.0000 30.3273 -149.6070
v  0.0000 30.3236 -133.0390
v  0.0000 30.3199 -116.4711
v  0.0000 9.1684 -94.0942
v  0.0000 9.1684 -99.7318
v  0.0000 9.1684 -116.3569
v  0.0000 9.1684 -132.9820
v  0.0000 9.1684 -149.6070
v  0.0000 9.1684 -154.8426
v  0.0000 10.4968 -35.9180
v  0.0000 30.4907 -64.4947
v  0.0000 7.4346 5.5901
v  0.0000 1.5355 6.0722
v  0.0000 -16.7321 -1.0515
v  0.0000 -9.7358 -2.9327
v  0.0000 -12.1760 14.1883
v  0.0000 -17.6735 15.0098
v  0.0000 -20.2907 -1.8755
v  0.0000 -20.2907 9.2218
v  0.0000 -4.8595 11.2486
v  0.0000 -2.6569 -5.9533
v  0.0000 3.2351 -10.2276
v  4.0141 15.7813 -154.8425
v  0.0000 19.9157 -154.8425
v  0.0000 20.6940 -154.8426
v  3.1388 24.6313 -154.8425
v  0.0000 31.8191 -64.4947
v  0.0000 27.5968 -154.8425
v  0.0000 11.6468 -154.8425
v  3.1388 24.6313 -163.3247
v  3.1388 24.6313 -171.8069
v  0.0000 27.5968 -171.8069
v  0.0000 27.5968 -163.3247
v  0.0000 21.6657 -163.3247
v  0.0000 21.6657 -171.8069
v  4.0141 15.7813 -163.3125
v  0.0000 19.9157 -163.3125
v  0.0000 11.6468 -163.3125
v  4.0141 15.7813 -171.7825
v  0.0000 19.9157 -171.7825
v  0.0000 11.6468 -171.7825
v  3.1388 24.6313 -180.2891
v  0.0000 27.5968 -180.2891
v  0.0000 21.6657 -180.2891
v  0.0000 21.6657 -154.8425
v  -3.2328 10.4968 7.7218
v  -3.2328 20.6940 9.4085
v  -4.5013 20.6940 -2.3188
v  -4.5013 12.6119 -2.3188
v  -3.2328 22.4967 8.1761
v  -4.5013 24.9660 -0.6929
v  -4.5013 20.6940 -10.2276
v  -4.5013 20.6940 -24.8947
v  -4.5013 12.6119 -24.8947
v  -3.2328 12.6119 -7.2981
v  -4.5013 27.8367 -10.2276
v  -4.5013 27.8367 -24.8947
v  -4.5013 20.6940 -35.9180
v  -4.5013 20.6940 -50.2064
v  -4.5013 12.6119 -50.2064
v  -4.5013 12.6119 -35.9180
v  -4.5013 27.8367 -35.9180
v  -4.5013 27.8367 -50.2064
v  -6.2474 20.6940 -64.4947
v  -6.2474 20.6940 -79.2944
v  -6.1473 12.1685 -79.2944
v  -6.1473 12.1685 -64.4947
v  -6.1762 28.6157 -64.4946
v  -6.1699 28.6293 -79.3226
v  -6.1636 28.6428 -94.1506
v  -6.1862 26.9951 -99.7739
v  -6.2474 20.6940 -99.7318
v  -6.2474 20.6940 -94.0942
v  -6.2474 20.6940 -116.3569
v  -6.1829 26.7007 -116.3850
v  -6.1795 26.7105 -132.9960
v  -6.2474 20.6940 -132.9820
v  -6.2474 20.6940 -149.6070
v  -6.1762 26.7203 -149.6070
v  -6.1762 26.7122 -154.8426
v  -6.2474 20.6940 -154.8426
v  -3.2328 7.4346 3.1944
v  -4.5013 5.3348 -2.3188
v  -4.5013 0.0000 -0.0000
v  -3.2328 1.5355 3.6764
v  -3.2328 -15.5315 1.8781
v  -3.2328 -19.2235 1.0540
v  -3.2328 -19.2235 9.2218
v  -4.5013 -13.9351 6.5503
v  -4.5013 -7.2509 3.4198
v  -3.2328 -8.9966 -0.5908
v  -3.2328 4.1891 -7.2981
v  -3.2328 -17.6735 12.6140
v  -3.2328 -12.1760 11.7925
v  -3.2328 -4.8595 8.8529
v  -3.2328 -1.5361 -3.6285
v  -1.6164 10.4968 10.1175
v  -1.6164 20.6940 11.8042
v  -2.2507 24.7492 8.8417
v  -2.2507 27.6200 -0.6929
v  -2.2507 30.4907 -10.2276
v  -2.2507 30.4907 -24.8947
v  -2.2507 30.4907 -35.9180
v  -4.5013 12.6119 -64.4947
v  -2.2507 10.4968 -64.4947
v  -2.2507 10.4968 -50.2064
v  -2.2507 30.4907 -50.2064
v  -6.1473 12.1685 -94.0942
v  -3.0025 9.2978 -94.0942
v  -3.0025 9.2978 -79.2944
v  -4.4278 31.6572 -64.4947
v  -4.4063 31.6585 -79.3689
v  -4.3848 31.6599 -94.2430
v  -4.4660 30.1439 -99.8850
v  -4.4278 30.1653 -149.6070
v  -4.4278 30.1653 -154.8425
v  -4.4533 30.1510 -116.4590
v  -4.4405 30.1582 -133.0330
v  -1.6164 1.5355 6.0722
v  -1.6164 7.4346 5.5901
v  -2.2507 -9.7358 -2.9327
v  -2.2507 -16.7321 -1.0515
v  -1.6164 -17.6735 15.0097
v  -1.6164 -12.1760 14.1883
v  -2.2507 -20.2907 -1.8755
v  -2.2507 -20.2907 9.2218
v  -1.6164 -4.8595 11.2486
v  -2.2507 3.2351 -10.2276
v  -2.2507 -2.6569 -5.9533
v  -6.1473 12.1685 -99.7318
v  -3.0025 9.2978 -99.7318
v  -6.1473 12.1685 -116.3569
v  -6.1473 12.1685 -132.9820
v  -3.0025 9.2978 -116.3569
v  -3.0025 9.2978 -132.9820
v  -6.1473 12.1685 -154.8426
v  -6.1473 12.1685 -149.6070
v  -3.0025 9.2978 -154.8426
v  -3.0025 9.2978 -149.6070
v  -2.2507 10.4968 -10.2276
v  -2.2507 10.4968 -24.8947
v  -2.2507 10.4968 -35.9180
v  -4.5013 20.6940 -64.4947
v  -4.5013 27.8367 -64.4947
v  -2.2507 30.4907 -64.4947
v  -3.0025 9.2978 -64.4947
v  -4.0141 15.7813 -154.8425
v  -3.1388 24.6313 -154.8425
v  -3.1388 24.6313 -163.3247
v  -3.1388 24.6313 -171.8069
v  -4.0141 15.7813 -163.3125
v  -4.0141 15.7813 -171.7825
v  -3.1388 24.6313 -180.2891
v  0.0000 10.4968 -24.8947
v  0.0000 10.4968 -10.2276
v  2.2507 3.1769 -26.2298
v  2.2507 6.9808 -35.1245
v  2.2507 -0.3677 -21.2227
v  0.0000 -0.3677 -21.2227
v  0.0000 3.1769 -26.2298
v  0.0000 6.9808 -35.1245
v  -2.2507 6.9808 -35.1245
v  -2.2507 3.1769 -26.2298
v  -2.2507 -0.3677 -21.2227
v  0.0000 10.4968 -23.7482
v  0.0000 10.4968 -12.7531
v  0.0000 3.2351 -12.7531
v  0.0000 3.2351 -23.7482
# 285 vertices

vn 0.9157 -0.2668 0.3005
vn 0.9992 -0.0094 -0.0396
vn 0.9995 -0.0253 0.0193
vn 0.9450 0.0884 0.3149
vn 0.9555 0.2634 0.1324
vn 0.9612 0.1798 0.2091
vn 0.9982 -0.0594 -0.0000
vn 0.9918 -0.0789 -0.1008
vn 0.9430 -0.3318 0.0257
vn 1.0000 0.0000 -0.0000
vn 0.9509 0.3055 0.0490
vn 0.9592 0.2826 -0.0000
vn 0.9427 -0.3337 -0.0000
vn 0.7088 -0.0007 0.7054
vn 0.7224 -0.2652 0.6386
vn 0.9387 -0.3447 -0.0000
vn 1.0000 -0.0008 -0.0000
vn 0.7310 0.1554 0.6644
vn 0.9776 0.2106 -0.0001
vn 0.9727 0.2297 -0.0340
vn 1.0000 -0.0005 -0.0000
vn 0.9829 0.1825 -0.0250
vn 1.0000 -0.0004 -0.0000
vn 1.0000 -0.0002 -0.0000
vn 0.9825 0.1864 -0.0000
vn 0.9829 0.1842 -0.0017
vn 0.7092 0.0000 -0.7051
vn 0.7300 0.1390 -0.6692
vn 0.9822 0.1877 -0.0002
vn 0.9667 -0.0858 0.2412
vn 0.9414 0.1155 0.3169
vn 1.0000 -0.0015 -0.0032
vn 0.9994 -0.0054 -0.0338
vn 0.9763 -0.0122 -0.2160
vn 0.9966 -0.0813 0.0158
vn 0.9117 -0.3988 0.0987
vn 0.9643 -0.2462 -0.0972
vn 0.9673 -0.0925 -0.2361
vn 0.9996 -0.0118 -0.0252
vn 0.9765 -0.0590 -0.2071
vn 0.9417 0.0932 0.3233
vn 0.9069 -0.3047 0.2912
vn 0.9311 0.1965 0.3073
vn 0.9663 -0.1188 -0.2283
vn 0.4600 0.1824 0.8690
vn 0.4528 -0.4598 0.7639
vn 0.5418 0.6815 0.4919
vn 0.4590 0.8794 0.1264
vn 0.4697 0.8453 0.2545
vn 0.4785 0.8781 -0.0000
vn 0.5774 -0.2044 0.7905
vn 0.4306 -0.9026 -0.0000
vn 0.2477 -0.5192 0.8180
vn 0.4496 -0.8932 -0.0000
vn 0.5647 0.8253 -0.0005
vn 0.4518 0.6554 0.6053
vn 0.5987 0.7943 -0.1032
vn 0.5410 0.8343 -0.1062
vn 0.4674 0.6470 -0.6024
vn 0.5851 0.8109 0.0000
vn 0.5864 0.8100 0.0000
vn 0.5876 0.8091 0.0000
vn 0.5598 -0.4254 0.7112
vn 0.5473 0.3353 0.7668
vn 0.6616 -0.0009 -0.7499
vn 0.6084 -0.2596 -0.7499
vn 0.4995 0.2230 0.8371
vn 0.4345 -0.4016 0.8062
vn 0.5002 -0.5300 -0.6848
vn 0.4407 -0.8760 0.1959
vn 0.4791 0.4351 0.7623
vn 0.6219 -0.3868 -0.6809
vn 0.5650 -0.2547 -0.7848
vn 0.4496 -0.8932 0.0000
vn 0.7223 -0.2652 -0.6387
vn 0.3501 -0.6955 -0.6275
vn 0.8129 -0.4374 -0.3846
vn 0.4306 -0.9026 0.0000
vn 0.7071 0.0000 0.7071
vn 0.6043 0.1780 0.7766
vn 0.2653 0.4870 0.8321
vn -0.0000 0.2314 0.9729
vn 0.0000 -0.5396 0.8419
vn -0.0000 0.8161 0.5779
vn 0.0000 0.9893 0.1457
vn 0.0000 0.9575 0.2883
vn 0.0000 1.0000 -0.0000
vn 0.0000 -1.0000 -0.0000
vn -0.0000 -0.7071 0.7071
vn 0.3501 -0.6955 0.6275
vn 0.0000 -0.7194 0.6946
vn 0.0000 0.9916 -0.1292
vn 0.0000 1.0000 -0.0004
vn -0.0000 0.9916 -0.1290
vn -0.0000 0.7176 -0.6965
vn -0.0000 1.0000 0.0001
vn -0.0000 1.0000 0.0002
vn 0.0000 -0.7194 -0.6946
vn 0.0000 -1.0000 0.0000
vn 0.0000 0.7071 0.7071
vn 0.0000 -0.4325 0.9017
vn 0.0000 0.3719 0.9283
vn -0.0000 -0.0175 -0.9998
vn -0.0000 -0.3269 -0.9451
vn -0.0000 0.2621 0.9650
vn 0.0000 -0.4785 0.8781
vn -0.0000 -0.6223 -0.7828
vn -0.0000 -0.9775 0.2107
vn 0.0000 0.5066 0.8622
vn 0.0000 -0.4929 -0.8701
vn 0.0000 -0.3086 -0.9512
vn 0.4968 0.0000 -0.8678
vn 0.0000 0.3491 -0.9371
vn 0.0000 -0.0000 -1.0000
vn 0.4779 0.0000 -0.8784
vn -0.0000 0.7177 0.6963
vn -0.0000 0.3713 -0.9285
vn 0.0000 -0.3491 -0.9371
vn 0.8040 0.0000 -0.5947
vn 0.0000 0.8263 -0.5633
vn 0.0000 -0.8263 -0.5633
vn 0.8078 0.0000 -0.5895
vn 0.0000 0.8238 -0.5669
vn 0.0000 -0.8238 -0.5669
vn -0.0000 -0.3713 -0.9285
vn -0.9157 -0.2668 0.3005
vn -0.9450 0.0884 0.3149
vn -0.9995 -0.0253 0.0193
vn -0.9992 -0.0094 -0.0396
vn -0.9612 0.1798 0.2091
vn -0.9555 0.2634 0.1324
vn -0.9982 -0.0594 -0.0000
vn -1.0000 0.0000 -0.0000
vn -0.9430 -0.3318 0.0257
vn -0.9918 -0.0789 -0.1008
vn -0.9509 0.3055 0.0490
vn -0.9592 0.2826 -0.0000
vn -0.9427 -0.3337 -0.0000
vn -0.7089 -0.0007 0.7053
vn -1.0000 -0.0008 -0.0000
vn -0.9387 -0.3447 -0.0000
vn -0.7224 -0.2652 0.6386
vn -0.7310 0.1554 0.6644
vn -0.9776 0.2106 -0.0001
vn -0.9727 0.2297 -0.0340
vn -0.9829 0.1825 -0.0250
vn -1.0000 -0.0005 -0.0000
vn -1.0000 -0.0004 -0.0000
vn -0.9829 0.1842 -0.0017
vn -0.9825 0.1864 -0.0000
vn -1.0000 -0.0002 0.0000
vn -0.9822 0.1877 -0.0002
vn -0.7300 0.1390 -0.6692
vn -0.7091 0.0000 -0.7051
vn -0.9667 -0.0858 0.2412
vn -0.9994 -0.0054 -0.0338
vn -1.0000 -0.0015 -0.0032
vn -0.9414 0.1155 0.3169
vn -0.9763 -0.0122 -0.2160
vn -0.9643 -0.2462 -0.0972
vn -0.9117 -0.3988 0.0987
vn -0.9966 -0.0813 0.0158
vn -0.9996 -0.0118 -0.0252
vn -0.9673 -0.0925 -0.2361
vn -0.9765 -0.0590 -0.2071
vn -0.9069 -0.3047 0.2912
vn -0.9417 0.0932 0.3233
vn -0.9311 0.1965 0.3073
vn -0.9663 -0.1188 -0.2283
vn -0.4528 -0.4598 0.7639
vn -0.4600 0.1824 0.8690
vn -0.5419 0.6815 0.4919
vn -0.4697 0.8453 0.2545
vn -0.4590 0.8794 0.1264
vn -0.4785 0.8781 -0.0000
vn -0.5774 -0.2044 0.7905
vn -0.2477 -0.5192 0.8180
vn -0.4306 -0.9026 -0.0000
vn -0.4496 -0.8932 -0.0000
vn -0.4518 0.6554 0.6053
vn -0.5647 0.8253 -0.0005
vn -0.5410 0.8343 -0.1062
vn -0.5987 0.7943 -0.1032
vn -0.5851 0.8109 0.0000
vn -0.4674 0.6470 -0.6024
vn -0.5876 0.8091 0.0000
vn -0.5864 0.8100 0.0000
vn -0.5473 0.3353 0.7669
vn -0.5598 -0.4254 0.7111
vn -0.6084 -0.2596 -0.7500
vn -0.6615 -0.0009 -0.7499
vn -0.4345 -0.4016 0.8062
vn -0.4995 0.2230 0.8371
vn -0.5002 -0.5299 -0.6849
vn -0.4407 -0.8760 0.1959
vn -0.4791 0.4351 0.7623
vn -0.5650 -0.2547 -0.7848
vn -0.6219 -0.3868 -0.6809
vn -0.7223 -0.2652 -0.6387
vn -0.3501 -0.6955 -0.6275
vn -0.8129 -0.4374 -0.3846
vn -0.4306 -0.9026 0.0000
vn -0.7071 0.0000 0.7071
vn -0.6043 0.1780 0.7766
vn -0.2653 0.4870 0.8321
vn -0.3501 -0.6955 0.6275
vn -0.4968 0.0000 -0.8678
vn -0.4779 0.0000 -0.8784
vn -0.8040 0.0000 -0.5947
vn -0.8078 0.0000 -0.5895
vn 0.0000 -0.7071 -0.7071
vn 0.6514 -0.1670 -0.7401
vn 0.7317 -0.5949 -0.3328
vn 0.6177 -0.5033 -0.6043
vn 1.0000 -0.0000 -0.0000
vn 0.7686 -0.6079 0.1992
vn 0.6185 -0.7770 -0.1172
vn 0.0000 -0.9503 0.3114
vn 0.0000 -0.9888 -0.1491
vn -0.0000 -0.8727 -0.4882
vn 0.0000 -0.6399 -0.7685
vn -0.6514 -0.1670 -0.7401
vn -0.6177 -0.5033 -0.6043
vn -0.7317 -0.5949 -0.3328
vn -0.6185 -0.7770 -0.1172
vn -0.7686 -0.6079 0.1992
vn -1.0000 -0.0000 -0.0000
vn 1.0000 -0.0000 0.0000
vn 0.0000 -0.2202 -0.9755
# 229 vertex normals

vt 0.0709 0.1901 0.0000
vt 0.1250 0.2004 0.0000
vt 0.1259 0.2437 0.0000
vt 0.0631 0.2439 0.0000
vt 0.1161 0.2671 0.0000
vt 0.0692 0.2534 0.0000
vt 0.1203 0.6357 0.0000
vt 0.1189 0.5816 0.0000
vt 0.2320 0.5823 0.0000
vt 0.2320 0.6357 0.0000
vt 0.1203 0.6682 0.0000
vt 0.2320 0.6682 0.0000
vt 0.3423 0.6357 0.0000
vt 0.3423 0.5823 0.0000
vt 0.4662 0.5823 0.0000
vt 0.4662 0.6357 0.0000
vt 0.3423 0.6682 0.0000
vt 0.4662 0.6682 0.0000
vt 0.0241 0.4238 0.0000
vt 0.0241 0.3530 0.0000
vt 0.1482 0.3530 0.0000
vt 0.1482 0.4238 0.0000
vt 0.0241 0.4870 0.0000
vt 0.1483 0.4870 0.0000
vt 0.1521 0.2005 0.0000
vt 0.0123 0.6357 0.0000
vt 0.0123 0.6682 0.0000
vt 0.2726 0.4870 0.0000
vt 0.2723 0.4238 0.0000
vt 0.3195 0.4238 0.0000
vt 0.3199 0.4739 0.0000
vt 0.4586 0.4238 0.0000
vt 0.5977 0.4238 0.0000
vt 0.5979 0.4720 0.0000
vt 0.4589 0.4720 0.0000
vt 0.7368 0.4238 0.0000
vt 0.7805 0.4238 0.0000
vt 0.7807 0.4720 0.0000
vt 0.7368 0.4720 0.0000
vt 0.0941 0.1721 0.0000
vt 0.0924 0.1406 0.0000
vt 0.1141 0.1329 0.0000
vt 0.1250 0.1618 0.0000
vt 0.1098 0.0496 0.0000
vt 0.0836 0.0579 0.0000
vt 0.0693 0.0289 0.0000
vt 0.1126 0.0291 0.0000
vt 0.1214 0.0845 0.0000
vt 0.0986 0.0935 0.0000
vt 0.1529 0.1560 0.0000
vt 0.0542 0.0659 0.0000
vt 0.0509 0.0367 0.0000
vt 0.0678 0.1049 0.0000
vt 0.1352 0.1248 0.0000
vt 0.0481 0.2447 0.0000
vt 0.0556 0.1906 0.0000
vt 0.0643 0.2652 0.0000
vt 0.1203 0.7131 0.0000
vt 0.0123 0.7131 0.0000
vt 0.3423 0.7131 0.0000
vt 0.2320 0.7131 0.0000
vt 0.5900 0.5823 0.0000
vt 0.4662 0.5602 0.0000
vt 0.5900 0.5602 0.0000
vt 0.4662 0.7131 0.0000
vt 0.2724 0.3529 0.0000
vt 0.1482 0.3235 0.0000
vt 0.2722 0.3235 0.0000
vt 0.1485 0.5265 0.0000
vt 0.0241 0.5265 0.0000
vt 0.1128 0.2841 0.0000
vt 0.3207 0.5115 0.0000
vt 0.2729 0.5265 0.0000
vt 0.7807 0.5115 0.0000
vt 0.7369 0.5115 0.0000
vt 0.5983 0.5115 0.0000
vt 0.4596 0.5115 0.0000
vt 0.0772 0.1709 0.0000
vt 0.0764 0.1403 0.0000
vt 0.1262 0.0422 0.0000
vt 0.1351 0.0802 0.0000
vt 0.0384 0.0653 0.0000
vt 0.0366 0.0338 0.0000
vt 0.1274 0.0216 0.0000
vt 0.0688 0.0211 0.0000
vt 0.0519 0.1048 0.0000
vt 0.1492 0.1187 0.0000
vt 0.1696 0.1514 0.0000
vt 0.3195 0.3528 0.0000
vt 0.3194 0.3235 0.0000
vt 0.4586 0.3528 0.0000
vt 0.5977 0.3528 0.0000
vt 0.4585 0.3235 0.0000
vt 0.5977 0.3235 0.0000
vt 0.7368 0.3528 0.0000
vt 0.7806 0.3529 0.0000
vt 0.7368 0.3235 0.0000
vt 0.7806 0.3235 0.0000
vt 0.1203 0.5602 0.0000
vt 0.2320 0.5602 0.0000
vt 0.3423 0.5602 0.0000
vt 0.1693 0.1897 0.0000
vt 0.5900 0.6357 0.0000
vt 0.5900 0.6682 0.0000
vt 0.5900 0.7131 0.0000
vt 0.0421 0.2460 0.0000
vt 0.0499 0.1884 0.0000
vt 0.0587 0.2713 0.0000
vt 0.1203 0.7319 0.0000
vt 0.0123 0.7319 0.0000
vt 0.3423 0.7319 0.0000
vt 0.2320 0.7319 0.0000
vt 0.4662 0.5456 0.0000
vt 0.5900 0.5456 0.0000
vt 0.4662 0.7319 0.0000
vt 0.0241 0.3235 0.0000
vt 0.0241 0.3060 0.0000
vt 0.1480 0.3060 0.0000
vt 0.2742 0.5489 0.0000
vt 0.1491 0.5489 0.0000
vt 0.1087 0.2924 0.0000
vt 0.3223 0.5339 0.0000
vt 0.7807 0.5339 0.0000
vt 0.7369 0.5339 0.0000
vt 0.5983 0.5339 0.0000
vt 0.4599 0.5339 0.0000
vt 0.2719 0.3060 0.0000
vt 0.3193 0.3060 0.0000
vt 0.4585 0.3060 0.0000
vt 0.5977 0.3060 0.0000
vt 0.7368 0.3060 0.0000
vt 0.7806 0.3060 0.0000
vt 0.3423 0.5456 0.0000
vt 0.5900 0.7319 0.0000
vt 0.0709 0.1691 0.0000
vt 0.0700 0.1420 0.0000
vt 0.1353 0.0411 0.0000
vt 0.1436 0.0775 0.0000
vt 0.0318 0.0666 0.0000
vt 0.0288 0.0366 0.0000
vt 0.1362 0.0224 0.0000
vt 0.0350 0.0259 0.0000
vt 0.0671 0.0127 0.0000
vt 0.1268 0.0124 0.0000
vt 0.0456 0.1073 0.0000
vt 0.1573 0.1148 0.0000
vt 0.1773 0.1469 0.0000
vt 0.0132 0.4238 0.0000
vt 0.0132 0.3527 0.0000
vt 0.0132 0.3235 0.0000
vt 0.0132 0.3060 0.0000
vt 0.7895 0.3831 0.0000
vt 0.8202 0.4176 0.0000
vt 0.8202 0.4242 0.0000
vt 0.7962 0.4571 0.0000
vt 0.8003 0.5035 0.0000
vt 0.0132 0.5489 0.0000
vt 0.0132 0.5265 0.0000
vt 0.0241 0.5489 0.0000
vt 0.0132 0.4870 0.0000
vt 0.8200 0.4821 0.0000
vt 0.8199 0.5049 0.0000
vt 0.8005 0.3287 0.0000
vt 0.8198 0.3482 0.0000
vt 0.8196 0.3275 0.0000
vt 0.6720 0.5775 0.0000
vt 0.7408 0.5774 0.0000
vt 0.7409 0.6108 0.0000
vt 0.6720 0.6109 0.0000
vt 0.6719 0.5441 0.0000
vt 0.7408 0.5439 0.0000
vt 0.6007 0.7010 0.0000
vt 0.6008 0.6613 0.0000
vt 0.6618 0.6615 0.0000
vt 0.6617 0.7012 0.0000
vt 0.6009 0.6216 0.0000
vt 0.6619 0.6218 0.0000
vt 0.7227 0.6616 0.0000
vt 0.7226 0.7013 0.0000
vt 0.7228 0.6219 0.0000
vt 0.8097 0.5772 0.0000
vt 0.8097 0.6107 0.0000
vt 0.6032 0.6111 0.0000
vt 0.6031 0.5776 0.0000
vt 0.8096 0.5438 0.0000
vt 0.6031 0.5442 0.0000
vt 0.7621 0.6666 0.0000
vt 0.8202 0.4323 0.0000
vt 0.8431 0.5784 0.0000
vt 0.0711 0.1901 0.0000
vt 0.0630 0.2438 0.0000
vt 0.0691 0.2534 0.0000
vt 0.9117 0.7056 0.0000
vt 0.9117 0.5938 0.0000
vt 0.8583 0.5938 0.0000
vt 0.8583 0.7056 0.0000
vt 0.9442 0.7055 0.0000
vt 0.9442 0.5937 0.0000
vt 0.9117 0.4836 0.0000
vt 0.9117 0.3597 0.0000
vt 0.8583 0.3597 0.0000
vt 0.8583 0.4836 0.0000
vt 0.9442 0.4835 0.0000
vt 0.9442 0.3596 0.0000
vt 0.0940 0.1722 0.0000
vt 0.0925 0.1407 0.0000
vt 0.1127 0.0292 0.0000
vt 0.0694 0.0288 0.0000
vt 0.1529 0.1561 0.0000
vt 0.0513 0.0365 0.0000
vt 0.0557 0.1903 0.0000
vt 0.0480 0.2444 0.0000
vt 0.9889 0.5936 0.0000
vt 0.9889 0.4833 0.0000
vt 0.9889 0.3594 0.0000
vt 0.9889 0.7053 0.0000
vt 0.0765 0.1405 0.0000
vt 0.0770 0.1713 0.0000
vt 0.0364 0.0340 0.0000
vt 0.0384 0.0652 0.0000
vt 0.0519 0.1047 0.0000
vt 0.1203 0.5799 0.0000
vt 0.9117 0.2359 0.0000
vt 0.8583 0.2359 0.0000
vt 0.9442 0.2357 0.0000
vt 0.9889 0.2356 0.0000
vt 0.7056 0.2003 0.0000
vt 0.7056 0.2290 0.0000
vt 0.5632 0.2290 0.0000
vt 0.5632 0.2003 0.0000
vt 0.3737 0.2290 0.0000
vt 0.3737 0.2003 0.0000
vt 0.2798 0.2290 0.0000
vt 0.2798 0.2003 0.0000
vt 0.6173 0.8779 0.0000
vt 0.5529 0.8779 0.0000
vt 0.5602 0.8384 0.0000
vt 0.6116 0.8609 0.0000
vt 0.4675 0.8779 0.0000
vt 0.4675 0.8352 0.0000
vt 0.5321 0.8167 0.0000
vt 0.4675 0.8252 0.0000
vt 0.5338 0.8085 0.0000
vt 0.5644 0.8311 0.0000
vt 0.6177 0.8549 0.0000
vt 0.5602 0.8381 0.0000
vt 0.5642 0.8314 0.0000
vt 0.9451 0.7985 0.0000
vt 0.8668 0.7985 0.0000
vt 0.8668 0.7467 0.0000
vt 0.9451 0.7467 0.0000
vt 0.6270 0.8779 0.0000
# 252 texture coords

o shotgun_body
g shotgun_body
f 251/68/78 252/69/79 253/70/80 254/71/81 
f 254/71/81 253/70/80 255/72/82 256/73/83 
f 257/74/84 258/75/85 259/76/86 260/77/87 
f 261/78/88 257/74/84 260/77/87 262/79/89 
f 263/80/87 264/81/90 265/82/90 266/83/87 
f 267/84/89 263/80/87 266/83/87 268/85/89 
f 269/86/91 270/87/92 271/88/93 272/89/94 
f 273/90/95 269/86/91 272/89/94 274/91/96 
f 259/76/86 264/81/90 263/80/87 260/77/87 
f 260/77/87 263/80/87 267/84/89 262/79/89 
f 252/69/79 258/92/85 253/70/80 
f 253/93/80 257/74/84 261/78/88 255/94/82 
f 275/95/97 276/96/98 277/97/94 278/98/99 
f 279/99/100 280/100/101 281/101/102 282/102/103 
f 283/103/87 284/104/104 285/105/105 286/106/106 
f 287/107/107 288/108/108 289/109/109 290/110/110 
f 287/107/107 252/69/79 251/68/78 
f 291/111/111 292/112/112 293/113/113 294/114/114 
f 292/112/112 291/111/111 295/115/115 296/116/116 
f 290/110/110 297/117/117 258/92/85 252/69/79 
f 292/112/112 298/118/118 299/119/119 293/113/113 
f 288/108/108 300/120/120 296/116/116 289/109/109 
f 301/121/121 297/117/117 290/110/110 289/109/109 
f 295/115/115 301/121/121 289/109/109 296/116/116 
f 300/120/120 298/118/118 292/112/112 296/116/116 
f 251/68/78 254/71/81 302/122/122 303/123/123 
f 254/71/81 256/73/83 304/124/124 302/122/122 
f 255/94/82 261/78/88 305/125/125 306/126/126 
f 262/79/89 267/84/89 307/127/127 308/128/127 
f 309/129/128 265/82/90 310/130/129 311/131/130 
f 267/84/89 268/85/89 312/132/127 307/127/127 
f 313/133/93 271/88/93 314/134/131 315/135/131 
f 273/90/95 274/91/96 316/136/132 317/137/133 
f 261/78/88 262/79/89 308/128/127 305/125/125 
f 256/73/83 255/72/82 306/138/126 304/124/124 
f 275/95/97 278/98/99 318/139/134 319/140/135 
f 286/106/106 285/105/105 320/141/136 321/142/137 
f 282/102/103 281/101/102 322/143/138 323/144/139 
f 288/108/108 287/107/107 324/145/140 325/146/141 
f 295/115/115 291/111/111 326/147/142 327/148/143 
f 287/107/107 251/68/78 303/123/123 324/145/140 
f 299/119/119 298/118/118 328/149/144 329/150/145 
f 291/111/111 294/114/114 330/151/146 326/147/142 
f 293/113/113 299/119/119 329/150/145 331/152/147 
f 294/114/114 293/113/113 331/152/147 330/151/146 
f 300/120/120 288/108/108 325/146/141 332/153/148 
f 297/117/117 301/121/121 333/154/149 334/155/150 
f 301/121/121 295/115/115 327/148/143 333/154/149 
f 298/118/118 300/120/120 332/153/148 328/149/144 
f 276/96/98 313/133/93 335/156/93 277/97/94 
f 313/133/93 315/135/131 336/157/151 335/156/93 
f 337/158/93 338/159/93 280/100/101 279/99/100 
f 339/160/131 340/161/131 338/159/93 337/158/93 
f 283/103/87 341/162/93 342/163/152 284/104/104 
f 341/162/93 343/164/131 344/165/153 342/163/152 
f 345/166/154 346/167/129 259/76/86 258/75/85 
f 346/167/129 347/168/155 264/81/90 259/76/86 
f 334/155/150 345/169/154 258/92/85 297/117/117 
f 265/82/90 309/129/128 348/170/156 266/83/87 
f 266/83/87 348/170/156 349/171/157 268/85/89 
f 265/82/90 264/81/90 347/168/155 310/130/129 
f 268/85/89 349/171/157 350/172/158 312/132/127 
f 302/122/122 351/173/159 352/174/160 303/123/123 
f 304/124/124 353/175/161 351/173/159 302/122/122 
f 305/125/125 354/176/162 355/177/163 306/126/126 
f 307/127/127 356/178/164 357/179/164 308/128/127 
f 310/130/129 358/180/165 359/181/166 311/131/130 
f 312/132/127 360/182/164 356/178/164 307/127/127 
f 361/183/167 362/184/168 363/185/165 314/134/131 
f 319/140/135 364/186/169 365/187/170 316/136/132 
f 308/128/127 357/179/164 354/176/162 305/125/125 
f 306/138/126 355/188/163 353/175/161 304/124/124 
f 318/139/134 366/189/171 364/186/169 319/140/135 
f 320/141/136 367/190/172 368/191/173 321/142/137 
f 369/192/174 370/193/174 323/144/139 322/143/138 
f 315/135/131 371/194/165 372/195/165 336/157/151 
f 373/196/165 374/197/165 340/161/131 339/160/131 
f 343/164/131 375/198/165 376/199/175 344/165/153 
f 347/168/155 377/200/176 358/180/165 310/130/129 
f 350/172/158 378/201/177 360/182/164 312/132/127 
f 324/145/140 379/202/178 380/203/179 325/146/141 
f 326/147/142 381/204/180 382/205/181 327/148/143 
f 303/123/123 352/174/160 379/202/178 324/145/140 
f 328/149/144 383/206/182 384/207/183 329/150/145 
f 330/151/146 385/208/184 381/204/180 326/147/142 
f 329/150/145 384/209/183 386/210/185 331/152/147 
f 331/152/147 386/210/185 385/211/184 330/151/146 
f 325/146/141 380/203/179 387/212/186 332/153/148 
f 333/154/149 388/213/187 389/214/188 334/155/150 
f 327/148/143 382/205/181 388/213/187 333/154/149 
f 332/153/148 387/212/186 383/206/182 328/149/144 
f 287/107/107 290/110/110 252/69/79 
f 348/215/156 309/216/128 270/87/92 269/86/91 
f 309/216/128 311/217/130 361/183/167 270/87/92 
f 311/217/130 359/218/166 362/184/168 361/183/167 
f 284/104/104 390/219/189 391/220/190 392/221/191 
f 285/105/105 393/222/192 320/223/136 
f 378/224/177 350/225/158 317/137/133 394/226/193 
f 350/225/158 349/227/157 273/90/95 317/137/133 
f 349/227/157 348/215/156 269/86/91 273/90/95 
f 280/100/101 283/103/87 286/106/106 281/101/102 
f 282/102/103 278/98/99 277/97/94 279/99/100 
f 281/101/102 286/106/106 321/142/137 322/143/138 
f 323/144/139 318/139/134 278/98/99 282/102/103 
f 338/159/93 341/162/93 283/103/87 280/100/101 
f 279/99/100 277/97/94 335/156/93 337/158/93 
f 340/161/131 343/164/131 341/162/93 338/159/93 
f 337/158/93 335/156/93 336/157/151 339/160/131 
f 370/193/174 366/189/171 318/139/134 323/144/139 
f 322/143/138 321/142/137 368/191/173 369/192/174 
f 374/197/165 375/198/165 343/164/131 340/161/131 
f 339/160/131 336/157/151 372/195/165 373/196/165 
f 393/222/192 395/228/194 367/229/172 320/223/136 
f 285/105/105 284/104/104 393/222/192 
f 342/163/152 344/230/153 396/231/195 390/219/189 
f 284/104/104 342/163/152 390/219/189 
f 344/230/153 376/232/175 396/231/195 
f 397/233/87 398/234/87 399/235/164 400/236/164 
f 401/237/165 402/238/165 398/234/87 397/233/87 
f 391/239/190 390/240/189 403/241/87 404/242/164 
f 390/240/189 396/243/195 405/244/165 403/241/87 
f 403/241/87 406/245/196 407/246/197 404/242/164 
f 405/244/165 408/247/198 406/245/196 403/241/87 
f 398/234/87 409/248/199 410/249/200 399/235/164 
f 400/236/164 395/250/194 393/251/192 397/233/87 
f 402/238/165 411/252/201 409/248/199 398/234/87 
f 397/233/87 393/251/192 412/253/202 401/237/165 
f 406/245/196 408/247/198 407/254/197 
f 284/104/104 392/221/191 412/255/202 393/222/192 
f 410/256/200 409/248/199 411/252/201 
f 258/75/85 257/74/84 253/93/80 
f 413/257/203 414/258/204 415/70/205 416/69/206 
f 414/258/204 417/259/207 418/72/208 415/70/205 
f 419/260/209 420/261/210 421/262/211 422/263/212 
f 423/264/213 424/265/214 420/261/210 419/260/209 
f 425/266/210 426/267/210 427/268/215 428/269/215 
f 429/270/214 430/271/214 426/267/210 425/266/210 
f 431/86/216 432/89/217 433/88/218 434/87/219 
f 435/90/220 436/91/221 432/89/217 431/86/216 
f 421/262/211 420/261/210 425/266/210 428/269/215 
f 420/261/210 424/265/214 429/270/214 425/266/210 
f 416/69/206 415/70/205 422/92/212 
f 415/93/205 418/94/208 423/78/213 419/74/209 
f 437/95/222 438/98/223 439/97/217 440/96/224 
f 441/99/225 442/102/226 443/101/227 444/100/228 
f 445/103/210 446/106/229 447/105/230 448/104/231 
f 449/272/232 450/110/233 451/109/234 452/273/235 
f 449/272/232 413/257/203 416/69/206 
f 453/111/236 454/274/237 455/275/238 456/112/239 
f 456/112/239 457/116/240 458/115/241 453/111/236 
f 450/110/233 416/69/206 422/92/212 459/276/242 
f 456/112/239 455/275/238 460/277/243 461/118/244 
f 452/273/235 451/109/234 457/116/240 462/120/245 
f 463/121/246 451/109/234 450/110/233 459/276/242 
f 458/115/241 457/116/240 451/109/234 463/121/246 
f 462/120/245 457/116/240 456/112/239 461/118/244 
f 413/257/203 464/278/247 465/279/248 414/258/204 
f 414/258/204 465/279/248 466/124/249 417/259/207 
f 418/94/208 467/126/250 468/125/251 423/78/213 
f 424/265/214 469/280/252 470/281/252 429/270/214 
f 471/129/253 472/131/254 473/130/255 427/82/215 
f 429/270/214 470/281/252 474/282/252 430/271/214 
f 475/133/218 476/135/256 477/134/256 433/88/218 
f 435/90/220 478/137/257 479/136/258 436/91/221 
f 423/264/213 468/283/251 469/280/252 424/265/214 
f 417/259/207 466/124/249 467/138/250 418/72/208 
f 437/95/222 480/140/259 481/139/260 438/98/223 
f 446/106/229 482/142/261 483/141/262 447/105/230 
f 442/102/226 484/144/263 485/143/264 443/101/227 
f 452/273/235 486/284/265 487/285/266 449/272/232 
f 458/115/241 488/148/267 489/147/268 453/111/236 
f 449/272/232 487/285/266 464/278/247 413/257/203 
f 460/277/243 490/286/269 491/287/270 461/118/244 
f 453/111/236 489/147/268 492/151/271 454/274/237 
f 455/275/238 493/152/272 490/286/269 460/277/243 
f 454/274/237 492/151/271 493/152/272 455/275/238 
f 462/120/245 494/288/273 486/284/265 452/273/235 
f 459/276/242 495/155/274 496/154/275 463/121/246 
f 463/121/246 496/154/275 488/148/267 458/115/241 
f 461/118/244 491/287/270 494/288/273 462/120/245 
f 440/96/224 439/97/217 497/156/218 475/133/218 
f 475/133/218 497/156/218 498/157/256 476/135/256 
f 499/158/218 441/99/225 444/100/228 500/159/218 
f 501/160/256 499/158/218 500/159/218 502/161/256 
f 445/103/210 448/104/231 503/163/276 504/162/218 
f 504/162/218 503/163/276 505/165/277 506/164/256 
f 507/166/278 422/289/212 421/76/211 508/167/255 
f 508/167/255 421/76/211 428/81/215 509/168/279 
f 495/155/274 459/276/242 422/92/212 507/169/278 
f 427/268/215 426/267/210 510/290/280 471/291/253 
f 426/267/210 430/271/214 511/292/281 510/290/280 
f 427/82/215 473/130/255 509/168/279 428/81/215 
f 430/271/214 474/282/252 512/293/282 511/292/281 
f 465/279/248 464/278/247 352/174/160 351/173/159 
f 466/124/249 465/279/248 351/173/159 353/175/161 
f 468/125/251 467/126/250 355/177/163 354/176/162 
f 470/127/252 469/128/252 357/179/164 356/178/164 
f 473/130/255 472/131/254 359/181/166 358/180/165 
f 474/132/252 470/127/252 356/178/164 360/182/164 
f 513/183/283 477/134/256 363/185/165 362/184/168 
f 480/140/259 479/136/258 365/187/170 364/186/169 
f 469/128/252 468/125/251 354/176/162 357/179/164 
f 467/138/250 466/124/249 353/175/161 355/188/163 
f 481/139/260 480/140/259 364/186/169 366/189/171 
f 483/141/262 482/142/261 368/191/173 367/190/172 
f 369/192/174 485/143/264 484/144/263 370/193/174 
f 476/135/256 498/157/256 372/195/165 371/194/165 
f 373/196/165 501/160/256 502/161/256 374/197/165 
f 506/164/256 505/165/277 376/199/175 375/198/165 
f 509/168/279 473/130/255 358/180/165 377/200/176 
f 512/172/282 474/132/252 360/182/164 378/201/177 
f 487/285/266 486/284/265 380/203/179 379/202/178 
f 489/147/268 488/148/267 382/205/181 381/204/180 
f 464/278/247 487/285/266 379/202/178 352/174/160 
f 491/287/270 490/286/269 384/207/183 383/206/182 
f 492/151/271 489/147/268 381/204/180 385/208/184 
f 490/286/269 493/152/272 386/210/185 384/209/183 
f 493/152/272 492/151/271 385/211/184 386/210/185 
f 486/284/265 494/288/273 387/212/186 380/203/179 
f 496/154/275 495/155/274 389/214/188 388/213/187 
f 488/148/267 496/154/275 388/213/187 382/205/181 
f 494/288/273 491/287/270 383/206/182 387/212/186 
f 449/272/232 416/69/206 450/110/233 
f 510/215/280 431/86/216 434/87/219 471/216/253 
f 471/216/253 434/87/219 513/183/283 472/217/254 
f 472/217/254 513/183/283 362/184/168 359/218/166 
f 448/104/231 392/221/191 391/220/190 514/219/284 
f 447/105/230 483/223/262 515/222/285 
f 378/224/177 394/226/193 478/137/257 512/225/282 
f 512/225/282 478/137/257 435/90/220 511/227/281 
f 511/227/281 435/90/220 431/86/216 510/215/280 
f 444/100/228 443/101/227 446/106/229 445/103/210 
f 442/102/226 441/99/225 439/97/217 438/98/223 
f 443/101/227 485/143/264 482/142/261 446/106/229 
f 484/144/263 442/102/226 438/98/223 481/139/260 
f 500/159/218 444/100/228 445/103/210 504/162/218 
f 441/99/225 499/158/218 497/156/218 439/97/217 
f 502/161/256 500/159/218 504/162/218 506/164/256 
f 499/158/218 501/160/256 498/157/256 497/156/218 
f 370/193/174 484/144/263 481/139/260 366/189/171 
f 485/143/264 369/192/174 368/191/173 482/142/261 
f 374/197/165 502/161/256 506/164/256 375/198/165 
f 501/160/256 373/196/165 372/195/165 498/157/256 
f 515/222/285 483/223/262 367/229/172 395/228/194 
f 447/105/230 515/222/285 448/104/231 
f 503/163/276 514/219/284 396/231/195 505/230/277 
f 448/104/231 514/219/284 503/163/276 
f 505/230/277 396/231/195 376/232/175 
f 516/233/210 400/236/164 399/235/164 517/234/210 
f 401/237/165 516/233/210 517/234/210 402/238/165 
f 391/239/190 404/242/164 518/241/210 514/240/284 
f 514/240/284 518/241/210 405/244/165 396/243/195 
f 518/241/210 404/242/164 407/246/197 519/245/286 
f 405/244/165 518/241/210 519/245/286 408/247/198 
f 517/234/210 399/235/164 410/249/200 520/248/287 
f 400/236/164 516/233/210 515/251/285 395/250/194 
f 402/238/165 517/234/210 520/248/287 411/252/201 
f 516/233/210 401/237/165 412/253/202 515/251/285 
f 519/245/286 407/254/197 408/247/198 
f 448/104/231 515/222/285 412/255/202 392/221/191 
f 410/256/200 411/252/201 520/248/287 
f 422/289/212 415/93/205 419/74/209 
f 271/88/93 313/133/93 276/96/98 272/89/94 
f 272/89/94 276/96/98 275/95/97 274/91/96 
f 271/88/93 270/87/92 361/183/167 314/134/131 
f 274/91/96 275/95/97 319/140/135 316/136/132 
f 363/185/165 371/194/165 315/135/131 314/134/131 
f 365/187/170 394/226/193 317/137/133 316/136/132 
f 432/89/217 440/96/224 475/133/218 433/88/218 
f 436/91/221 437/95/222 440/96/224 432/89/217 
f 477/134/256 513/183/283 434/87/219 433/88/218 
f 479/136/258 480/140/259 437/95/222 436/91/221 
f 477/134/256 476/135/256 371/194/165 363/185/165 
f 479/136/258 478/137/257 394/226/193 365/187/170 
f 377/294/176 347/295/155 346/296/129 521/297/165 
f 521/297/165 346/296/129 345/298/154 522/299/288 
f 522/299/288 345/298/154 334/300/150 389/301/188 
f 509/294/279 377/295/176 521/296/165 508/297/255 
f 508/297/255 521/296/165 522/298/288 507/299/278 
f 507/299/278 522/298/288 389/300/188 495/301/274 
f 347/302/289 346/303/87 523/304/290 524/305/291 
f 346/303/87 345/306/292 334/307/293 525/308/294 
f 525/308/294 334/307/293 389/309/295 526/310/296 
f 524/305/291 523/304/290 527/311/297 528/312/298 
f 523/304/290 525/308/294 526/310/296 527/311/297 
f 346/303/87 525/308/294 523/304/290 
f 509/302/299 529/305/300 530/313/301 508/303/210 
f 508/303/210 531/308/302 495/307/303 507/306/304 
f 531/308/302 526/310/296 389/309/295 495/307/303 
f 529/305/300 528/312/298 527/314/297 530/313/301 
f 530/313/301 527/314/297 526/310/296 531/308/302 
f 508/303/210 530/313/301 531/308/302 
f 532/315/87 533/316/292 534/317/305 535/318/305 
f 347/302/289 524/305/291 528/312/298 377/319/306 
f 509/302/299 377/319/306 528/312/298 529/305/300 
# 273 polygons - 22 triangles

#
# object shotgun_pump
#

v  7.7052 25.2746 -88.7492
v  7.7052 13.8386 -88.7492
v  7.7051 17.1671 -99.6251
v  7.7051 25.2746 -99.6251
v  7.7051 17.1671 -116.2502
v  7.7051 17.1671 -132.8752
v  7.7051 25.2746 -132.8752
v  7.7051 25.2746 -116.2501
v  7.7051 17.3623 -149.5003
v  7.7051 17.3623 -154.7358
v  7.7051 21.7590 -154.7358
v  7.7051 25.2746 -149.5003
v  7.7051 17.3623 -156.6198
v  7.7051 20.3447 -156.6198
v  7.7052 9.9527 -88.7492
v  7.7051 11.3432 -99.6251
v  7.7051 10.8797 -116.2502
v  7.7051 10.4162 -132.8752
v  7.7051 9.9527 -149.5003
v  7.7051 10.8204 -154.7358
v  7.7051 10.8204 -156.6198
v  7.7051 10.8204 -159.6238
v  7.7051 12.9166 -159.6238
v  0.0000 20.2747 -156.6198
v  0.0000 21.6890 -154.7358
v  0.0000 14.1014 -156.6198
v  0.0000 8.6333 -88.7492
v  0.0000 4.8438 -88.7492
v  3.8526 6.3571 -88.7492
v  3.8526 7.7476 -99.6251
v  3.8526 7.2841 -116.2502
v  3.8526 6.8206 -132.8752
v  3.8526 6.3571 -149.5003
v  3.8526 7.2248 -154.7358
v  3.8526 7.2248 -156.6198
v  0.0000 10.1509 -159.6238
v  3.8526 7.2248 -159.6238
v  0.0000 25.2746 -88.7492
v  0.0000 12.5596 -88.7492
v  0.0000 25.2746 -99.6251
v  0.0000 25.2746 -132.8752
v  0.0000 25.2746 -116.2501
v  0.0000 25.2746 -149.5003
v  0.0000 5.3073 -132.8752
v  0.0000 4.8438 -149.5003
v  0.0000 6.2343 -99.6251
v  0.0000 5.7708 -116.2502
v  0.0000 5.7115 -154.7358
v  0.0000 5.7115 -156.6198
v  0.0000 5.7115 -159.6238
v  -7.7051 25.2746 -88.7492
v  -7.7051 25.2746 -99.6251
v  -7.7051 17.1671 -99.6251
v  -7.7051 13.8386 -88.7492
v  -7.7052 17.1671 -116.2502
v  -7.7052 25.2746 -116.2501
v  -7.7051 25.2746 -132.8752
v  -7.7051 17.1671 -132.8752
v  -7.7051 17.3623 -149.5003
v  -7.7051 25.2746 -149.5003
v  -7.7051 21.7590 -154.7358
v  -7.7051 17.3623 -154.7358
v  -7.7051 20.3447 -156.6198
v  -7.7051 17.3623 -156.6198
v  -7.7051 11.3432 -99.6251
v  -7.7051 9.9527 -88.7492
v  -7.7051 10.4162 -132.8752
v  -7.7052 10.8797 -116.2502
v  -7.7051 10.8204 -154.7358
v  -7.7051 9.9527 -149.5003
v  -7.7051 10.8204 -156.6198
v  -7.7051 12.9166 -159.6238
v  -7.7051 10.8204 -159.6238
v  -3.8526 6.3571 -88.7492
v  -3.8526 7.7476 -99.6251
v  -3.8526 6.8206 -132.8752
v  -3.8526 7.2841 -116.2502
v  -3.8526 7.2248 -154.7358
v  -3.8526 6.3571 -149.5003
v  -3.8526 7.2248 -156.6198
v  -3.8526 7.2248 -159.6238
# 81 vertices

vn 0.5774 0.5773 0.5774
vn 0.7071 -0.0000 0.7071
vn 1.0000 0.0000 -0.0000
vn 0.7071 0.7071 -0.0000
vn 1.0000 0.0000 0.0000
vn 1.0000 -0.0000 -0.0000
vn 0.6978 0.5840 -0.4148
vn 0.6470 0.7294 -0.2222
vn 0.7429 0.1354 -0.6556
vn 0.6170 0.3539 -0.7029
vn 0.7312 -0.2812 0.6215
vn 0.9472 -0.3204 -0.0153
vn 0.9421 -0.3353 0.0093
vn 0.9353 -0.3530 -0.0253
vn 0.9473 -0.3193 -0.0253
vn 0.9421 -0.3353 -0.0000
vn 0.7248 -0.2580 -0.6388
vn 0.5813 0.2960 -0.7579
vn -0.0000 0.4443 -0.8959
vn 0.0000 0.8125 -0.5829
vn -0.0000 0.4051 -0.9143
vn 0.0000 0.0000 1.0000
vn 0.0000 -0.8225 0.5688
vn 0.4849 -0.6102 0.6265
vn 0.6347 -0.7718 -0.0385
vn 0.6300 -0.7763 0.0216
vn 0.6233 -0.7801 -0.0533
vn 0.6342 -0.7706 -0.0638
vn 0.6301 -0.7765 -0.0000
vn -0.0000 0.2349 -0.9720
vn 0.4712 -0.5806 -0.6640
vn 0.0000 0.7071 0.7071
vn 0.0000 -0.0000 1.0000
vn 0.0000 1.0000 -0.0000
vn 0.0000 0.9553 -0.2958
vn -0.0000 -0.9996 0.0279
vn -0.0000 -0.9978 -0.0663
vn -0.0000 -0.9987 -0.0508
vn 0.0000 -0.9996 0.0279
vn -0.0000 -0.9965 -0.0841
vn 0.0000 -1.0000 -0.0000
vn -0.0000 -0.7870 -0.6170
vn -0.5774 0.5773 0.5774
vn -0.7071 0.7071 -0.0000
vn -1.0000 0.0000 -0.0000
vn -0.7071 -0.0000 0.7071
vn -1.0000 -0.0000 0.0000
vn -1.0000 -0.0000 -0.0000
vn -0.6471 0.7294 -0.2221
vn -0.6978 0.5840 -0.4148
vn -0.6170 0.3539 -0.7029
vn -0.7429 0.1354 -0.6556
vn -0.9472 -0.3204 -0.0153
vn -0.7312 -0.2812 0.6215
vn -0.9421 -0.3353 0.0093
vn -0.9473 -0.3193 -0.0253
vn -0.9353 -0.3530 -0.0253
vn -0.9421 -0.3353 0.0000
vn -0.5813 0.2960 -0.7579
vn -0.7248 -0.2580 -0.6388
vn -0.4849 -0.6102 0.6265
vn -0.6347 -0.7718 -0.0385
vn -0.6300 -0.7763 0.0216
vn -0.6342 -0.7706 -0.0638
vn -0.6233 -0.7801 -0.0533
vn -0.6301 -0.7765 -0.0000
vn -0.4712 -0.5806 -0.6640
# 67 vertex normals

vt 0.2441 0.1809 0.0000
vt 0.2439 0.1204 0.0000
vt 0.3324 0.1204 0.0000
vt 0.3324 0.1809 0.0000
vt 0.4664 0.1204 0.0000
vt 0.6010 0.1204 0.0000
vt 0.6010 0.1809 0.0000
vt 0.4664 0.1809 0.0000
vt 0.7363 0.1204 0.0000
vt 0.7760 0.1204 0.0000
vt 0.7760 0.1571 0.0000
vt 0.7363 0.1809 0.0000
vt 0.7970 0.1204 0.0000
vt 0.7970 0.1487 0.0000
vt 0.2436 0.0658 0.0000
vt 0.3324 0.0658 0.0000
vt 0.4664 0.0658 0.0000
vt 0.6010 0.0658 0.0000
vt 0.7363 0.0658 0.0000
vt 0.7760 0.0658 0.0000
vt 0.7970 0.0658 0.0000
vt 0.8171 0.0658 0.0000
vt 0.8134 0.0925 0.0000
vt 0.7970 0.2294 0.0000
vt 0.7760 0.2294 0.0000
vt 0.8468 0.1293 0.0000
vt 0.8340 0.1559 0.0000
vt 0.1990 0.0658 0.0000
vt 0.1985 0.0256 0.0000
vt 0.2209 0.0375 0.0000
vt 0.2450 0.0356 0.0000
vt 0.3324 0.0356 0.0000
vt 0.4664 0.0356 0.0000
vt 0.6010 0.0356 0.0000
vt 0.7363 0.0356 0.0000
vt 0.7760 0.0356 0.0000
vt 0.7970 0.0356 0.0000
vt 0.8621 0.0920 0.0000
vt 0.8174 0.0356 0.0000
vt 0.8517 0.0612 0.0000
vt 0.1997 0.1807 0.0000
vt 0.1995 0.1204 0.0000
vt 0.3324 0.2294 0.0000
vt 0.2443 0.2294 0.0000
vt 0.6010 0.2294 0.0000
vt 0.4664 0.2294 0.0000
vt 0.7363 0.2294 0.0000
vt 0.6010 0.0088 0.0000
vt 0.7363 0.0088 0.0000
vt 0.2467 0.0088 0.0000
vt 0.3324 0.0088 0.0000
vt 0.4664 0.0088 0.0000
vt 0.7760 0.0088 0.0000
vt 0.7970 0.0088 0.0000
vt 0.8184 0.0088 0.0000
vt 0.8769 0.0594 0.0000
# 56 texture coords

o shotgun_pump
g shotgun_pump
f 536/320/307 537/321/308 538/322/309 539/323/310 
f 540/324/311 541/325/312 542/326/310 543/327/310 
f 544/328/309 545/329/309 546/330/313 547/331/314 
f 546/330/313 545/329/309 548/332/315 549/333/316 
f 538/322/309 537/321/308 550/334/317 551/335/318 
f 541/325/312 540/324/311 552/336/319 553/337/319 
f 545/329/309 544/328/309 554/338/320 555/339/321 
f 548/332/315 545/329/309 555/339/321 556/340/322 
f 548/332/315 556/340/322 557/341/323 558/342/324 
f 546/330/313 549/333/316 559/343/325 560/344/326 
f 549/333/316 548/332/315 561/345/327 559/346/325 
f 550/334/317 562/347/328 563/348/329 564/349/330 
f 551/335/318 550/334/317 564/350/330 565/351/331 
f 553/337/319 552/336/319 566/352/332 567/353/332 
f 555/339/321 554/338/320 568/354/333 569/355/334 
f 556/340/322 555/339/321 569/355/334 570/356/335 
f 548/332/315 558/342/324 571/357/336 561/345/327 
f 557/341/323 556/340/322 570/356/335 572/358/337 
f 558/342/324 557/341/323 572/359/337 571/357/336 
f 537/321/308 536/320/307 573/360/338 574/361/339 
f 536/320/307 539/323/310 575/362/340 573/363/338 
f 543/327/310 542/326/310 576/364/340 577/365/340 
f 547/331/314 546/330/313 560/344/326 578/366/341 
f 541/325/312 544/328/309 547/331/314 542/326/310 
f 543/327/310 539/323/310 538/322/309 540/324/311 
f 540/324/311 538/322/309 551/335/318 552/336/319 
f 553/337/319 554/338/320 544/328/309 541/325/312 
f 552/336/319 551/335/318 565/351/331 566/352/332 
f 579/367/342 580/368/343 568/354/333 567/353/332 
f 542/326/310 547/331/314 578/366/341 576/364/340 
f 577/365/340 575/362/340 539/323/310 543/327/310 
f 564/350/330 563/369/329 581/370/344 565/351/331 
f 566/352/332 582/371/345 579/367/342 567/353/332 
f 568/354/333 580/368/343 583/372/346 569/355/334 
f 569/355/334 583/372/346 584/373/347 570/356/335 
f 570/356/335 584/373/347 585/374/348 572/358/337 
f 565/351/331 581/370/344 582/371/345 566/352/332 
f 568/354/333 554/338/320 553/337/319 567/353/332 
f 550/334/317 537/321/308 574/361/339 562/347/328 
f 586/320/349 587/323/350 588/322/351 589/321/352 
f 590/324/353 591/327/350 592/326/350 593/325/354 
f 594/328/351 595/331/355 596/330/356 597/329/353 
f 596/330/356 598/333/357 599/332/358 597/329/353 
f 588/322/351 600/335/359 601/334/360 589/321/352 
f 593/325/354 602/337/361 603/336/361 590/324/353 
f 597/329/353 604/339/362 605/338/363 594/328/351 
f 599/332/358 606/340/364 604/339/362 597/329/353 
f 599/332/358 607/342/365 608/341/366 606/340/364 
f 596/330/356 560/344/326 559/343/325 598/333/357 
f 601/334/360 609/349/367 563/348/329 562/347/328 
f 600/335/359 610/351/368 609/350/367 601/334/360 
f 602/337/361 611/353/369 612/352/369 603/336/361 
f 604/339/362 613/355/370 614/354/371 605/338/363 
f 606/340/364 615/356/372 613/355/370 604/339/362 
f 599/332/358 561/345/327 571/357/336 607/342/365 
f 608/341/366 616/358/373 615/356/372 606/340/364 
f 607/342/365 571/357/336 616/359/373 608/341/366 
f 589/321/352 574/361/339 573/360/338 586/320/349 
f 586/320/349 573/363/338 575/362/340 587/323/350 
f 591/327/350 577/365/340 576/364/340 592/326/350 
f 595/331/355 578/366/341 560/344/326 596/330/356 
f 593/325/354 592/326/350 595/331/355 594/328/351 
f 591/327/350 590/324/353 588/322/351 587/323/350 
f 590/324/353 603/336/361 600/335/359 588/322/351 
f 602/337/361 593/325/354 594/328/351 605/338/363 
f 603/336/361 612/352/369 610/351/368 600/335/359 
f 579/367/342 611/353/369 614/354/371 580/368/343 
f 592/326/350 576/364/340 578/366/341 595/331/355 
f 577/365/340 591/327/350 587/323/350 575/362/340 
f 599/332/358 598/333/357 559/346/325 561/345/327 
f 609/350/367 610/351/368 581/370/344 563/369/329 
f 612/352/369 611/353/369 579/367/342 582/371/345 
f 614/354/371 613/355/370 583/372/346 580/368/343 
f 613/355/370 615/356/372 584/373/347 583/372/346 
f 615/356/372 616/358/373 585/374/348 584/373/347 
f 616/359/373 571/357/336 585/375/348 
f 610/351/368 612/352/369 582/371/345 581/370/344 
f 614/354/371 611/353/369 602/337/361 605/338/363 
f 601/334/360 562/347/328 574/361/339 589/321/352 
f 572/359/337 585/375/348 571/357/336 
# 78 polygons - 2 triangles

#
# object shotgun_shell
#

v  -38.3797 11.6263 -25.9714
v  -36.6602 11.6263 -22.9932
v  -38.3797 11.6263 -20.0150
v  -41.8187 11.6263 -25.9714
v  -36.6602 17.6715 -22.9932
v  -38.3797 17.6715 -20.0150
v  -38.3797 17.6715 -25.9714
v  -41.8187 17.6715 -25.9714
v  -36.6602 25.9084 -22.9932
v  -38.3797 25.9084 -20.0150
v  -38.3797 25.9084 -25.9714
v  -36.6602 29.7617 -22.9932
v  -38.3797 29.7617 -20.0150
v  -38.3797 29.7617 -25.9714
v  -41.8187 25.9084 -25.9714
v  -41.8187 29.7617 -25.9714
v  -43.5381 11.6263 -22.9932
v  -41.8187 11.6263 -20.0150
v  -41.8187 17.6715 -20.0150
v  -43.5381 17.6715 -22.9932
v  -41.8187 25.9084 -20.0150
v  -43.5381 25.9084 -22.9932
v  -41.8187 29.7617 -20.0150
v  -43.5381 29.7617 -22.9932
# 24 vertices

vn 0.3962 -0.6100 -0.6862
vn 0.7924 -0.6100 0.0000
vn 0.3962 -0.6100 0.6862
vn -0.3962 -0.6100 -0.6862
vn 1.0000 0.0000 0.0000
vn 0.5000 0.0000 0.8660
vn 0.5000 0.0000 -0.8660
vn -0.5000 0.0000 -0.8660
vn 0.7924 0.6100 0.0000
vn 0.3962 0.6100 0.6862
vn 0.3962 0.6100 -0.6862
vn -0.3962 0.6100 -0.6862
vn -0.7924 -0.6100 -0.0001
vn -0.3961 -0.6100 0.6862
vn -0.4999 0.0000 0.8661
vn -1.0000 0.0000 -0.0001
vn -0.3961 0.6100 0.6862
vn -0.7924 0.6100 -0.0001
# 18 vertex normals

vt 0.9490 0.8247 0.2328
vt 0.9123 0.8247 0.0000
vt 0.8964 0.8046 -0.4656
vt 0.9648 0.8046 0.4656
vt 0.8791 0.8247 0.4656
vt 0.9123 0.8647 0.4656
vt 0.8791 0.8647 0.4656
vt 0.9490 0.8647 0.4656
vt 0.9806 0.8247 0.4656
vt 0.9806 0.8647 0.4656
vt 0.9123 0.9381 0.4656
vt 0.8791 0.9381 0.4656
vt 0.9490 0.9381 0.4656
vt 0.9123 0.9636 0.0000
vt 0.8791 0.9636 0.4656
vt 0.9490 0.9636 0.4656
vt 0.9806 0.9381 0.4656
vt 0.9806 0.9636 0.4656
vt 0.9648 0.9868 0.4656
vt 0.8964 0.9868 -0.4656
# 20 texture coords

o shotgun_shell
g shotgun_shell
f 617/376/374 618/377/375 619/378/376 620/379/377 
f 619/380/376 618/377/375 621/381/378 622/382/379 
f 618/377/375 617/376/374 623/383/380 621/381/378 
f 617/376/374 620/384/377 624/385/381 623/383/380 
f 622/382/379 621/381/378 625/386/378 626/387/379 
f 621/381/378 623/383/380 627/388/380 625/386/378 
f 626/387/379 625/386/378 628/389/382 629/390/383 
f 625/386/378 627/388/380 630/391/384 628/389/382 
f 627/388/380 631/392/381 632/393/385 630/391/384 
f 630/391/384 632/394/385 629/395/383 628/389/382 
f 623/383/380 624/385/381 631/392/381 627/388/380 
f 633/376/386 620/379/377 619/378/376 634/377/387 
f 619/380/376 622/382/379 635/381/388 634/377/387 
f 634/377/387 635/381/388 636/383/389 633/376/386 
f 633/376/386 636/383/389 624/385/381 620/384/377 
f 626/387/379 637/386/388 635/381/388 622/382/379 
f 637/386/388 638/388/389 636/383/389 635/381/388 
f 638/388/389 631/392/381 624/385/381 636/383/389 
f 626/387/379 629/390/383 639/389/390 637/386/388 
f 637/386/388 639/389/390 640/391/391 638/388/389 
f 638/388/389 640/391/391 632/393/385 631/392/381 
f 640/391/391 639/389/390 629/395/383 632/394/385 
# 22 polygons

#
# object shotgun_stock
#

v  5.3514 32.1375 -82.2634
v  5.3514 32.1375 -97.4955
v  5.3514 41.1227 -97.4955
v  5.3514 41.1227 -82.2634
v  0.0000 41.1227 -97.4955
v  0.0000 41.1227 -82.2634
v  0.0000 32.1375 -97.4955
v  5.3514 32.1375 -74.8804
v  0.0000 32.1375 -74.8804
v  0.0000 32.1375 -82.2634
v  5.3514 41.1227 -74.8804
v  0.0000 41.1227 -74.8804
v  5.3514 32.1375 -67.4975
v  5.3514 41.1227 -67.4975
v  5.3514 36.0937 -23.3587
v  5.3514 31.0647 -9.0668
v  5.3514 22.9910 -11.2668
v  5.3514 27.5642 -24.7737
v  5.3514 41.1227 -52.7315
v  5.3514 41.1227 -37.6505
v  5.3514 32.1375 -38.2805
v  5.3514 32.1375 -52.7315
v  5.3514 26.0357 5.2250
v  5.3514 18.4177 2.2400
v  -5.3514 32.1375 -82.2634
v  -5.3514 41.1227 -82.2634
v  -5.3514 41.1227 -97.4955
v  -5.3514 32.1375 -97.4955
v  -5.3514 32.1375 -74.8804
v  -5.3514 41.1227 -74.8804
v  -5.3514 32.1375 -67.4975
v  -5.3514 41.1227 -67.4975
v  -5.3514 36.0937 -23.3587
v  -5.3514 27.5642 -24.7737
v  -5.3514 22.9910 -11.2669
v  -5.3514 31.0647 -9.0668
v  -5.3514 41.1227 -52.7315
v  -5.3514 32.1375 -52.7315
v  -5.3514 32.1375 -38.2805
v  -5.3514 41.1227 -37.6505
v  -5.3514 18.4177 2.2400
v  -5.3514 26.0357 5.2250
# 42 vertices

vn 0.7071 -0.7071 -0.0000
vn 0.5774 -0.5774 -0.5774
vn 0.5774 0.5774 -0.5774
vn 0.7071 0.7071 -0.0000
vn 0.0000 0.7071 -0.7071
vn 0.0000 1.0000 -0.0000
vn 0.0000 -0.7071 -0.7071
vn 0.5774 -0.5774 0.5774
vn 0.0000 -0.7071 0.7071
vn 0.0000 -1.0000 -0.0000
vn 0.5774 0.5774 0.5774
vn 0.0000 0.7071 0.7071
vn 1.0000 -0.0000 -0.0000
vn 1.0000 0.0000 -0.0000
vn -0.7071 -0.7071 -0.0000
vn -0.7071 0.7071 -0.0000
vn -0.5774 0.5774 -0.5774
vn -0.5774 -0.5774 -0.5774
vn -0.5774 -0.5774 0.5774
vn -0.5774 0.5774 0.5774
vn -1.0000 -0.0000 -0.0000
vn -1.0000 0.0000 -0.0000
vn -1.0000 0.0000 0.0000
# 23 vertex normals

vt 0.6901 0.7481 0.0000
vt 0.8137 0.7481 0.0000
vt 0.8137 0.8210 0.0000
vt 0.6901 0.8210 0.0000
vt 0.8137 0.8541 0.0000
vt 0.6901 0.8541 0.0000
vt 0.8468 0.7481 0.0000
vt 0.8467 0.8210 0.0000
vt 0.6302 0.7481 0.0000
vt 0.6302 0.7150 0.0000
vt 0.6901 0.7150 0.0000
vt 0.8137 0.7150 0.0000
vt 0.6302 0.8210 0.0000
vt 0.6301 0.8540 0.0000
vt 0.5971 0.7481 0.0000
vt 0.5971 0.8210 0.0000
vt 0.6102 0.8898 0.0000
vt 0.6610 0.8898 0.0000
vt 0.6610 0.9619 0.0000
vt 0.6102 0.9619 0.0000
vt 0.2567 0.9619 0.0000
vt 0.1338 0.9619 0.0000
vt 0.1338 0.8898 0.0000
vt 0.2567 0.8898 0.0000
vt 0.4981 0.9619 0.0000
vt 0.3866 0.9619 0.0000
vt 0.3866 0.8898 0.0000
vt 0.4981 0.8898 0.0000
vt 0.0095 0.9619 0.0000
vt 0.0095 0.8898 0.0000
# 30 texture coords

o shotgun_stock
g shotgun_stock
f 641/396/392 642/397/393 643/398/394 644/399/395 
f 644/399/395 643/398/394 645/400/396 646/401/397 
f 643/398/394 642/397/393 647/402/398 645/403/396 
f 641/396/392 648/404/399 649/405/400 650/406/401 
f 642/397/393 641/396/392 650/406/401 647/407/398 
f 648/404/399 641/396/392 644/399/395 651/408/402 
f 651/408/402 644/399/395 646/401/397 652/409/403 
f 649/410/400 648/404/399 651/408/402 652/411/403 
f 653/412/404 648/413/404 651/414/404 654/415/404 
f 655/416/404 656/417/404 657/418/404 658/419/404 
f 659/420/405 660/421/404 661/422/404 662/423/405 
f 654/415/404 659/420/405 662/423/405 653/412/404 
f 656/417/404 663/424/404 664/425/404 657/418/404 
f 658/419/404 661/422/404 660/421/404 655/416/404 
f 665/396/406 666/399/407 667/398/408 668/397/409 
f 666/399/407 646/401/397 645/400/396 667/398/408 
f 667/398/408 645/403/396 647/402/398 668/397/409 
f 665/396/406 650/406/401 649/405/400 669/404/410 
f 668/397/409 647/407/398 650/406/401 665/396/406 
f 669/404/410 670/408/411 666/399/407 665/396/406 
f 670/408/411 652/409/403 646/401/397 666/399/407 
f 649/410/400 652/411/403 670/408/411 669/404/410 
f 671/412/412 672/415/412 670/414/412 669/413/412 
f 673/416/412 674/419/412 675/418/413 676/417/414 
f 677/420/413 678/423/413 679/422/413 680/421/413 
f 672/415/412 671/412/412 678/423/413 677/420/413 
f 676/417/414 675/418/413 681/425/412 682/424/412 
f 674/419/412 673/416/412 680/421/413 679/422/413 
# 28 polygons

